{
"groups": [
		{
			"id": -1,
			"name": "internal"
		},
		{
			"id": 0,
			"name": "Потребляемая энергия. Потребляемая энергия"
		},
		{
			"id": 1,
			"name": "Подвеска. Электромагнитные клапаны"
		},
		{
			"id": 2,
			"name": "Подвеска. Датчики расстояния"
		},
		{
			"id": 32,
			"name": "Подвеска. Датчики давления"
		},
		{
			"id": 3,
			"name": "Подвеска. Охранное оборудование"
		},
		{
			"id": 4,
			"name": "Подвеска. Источники питания"
		},
		{
			"id": 5,
			"name": "Подвеска. Состояние CAN"
		},
		{
			"id": 6,
			"name": "Подвеска. Блок управления"
		},
		{
			"id": 7,
			"name": "Подвеска. Данные контрольных сумм"
		},
		{
			"id": 8,
			"name": "Подвеска. Датчик поперечного ускорения"
		},
		{
			"id": 9,
			"name": "Подвеска. Состояние процесса проверки параметров/компонентов"
		},
		{
			"id": 10,
			"name": "Тяговое оборудование. Тяговые батареи"
		},
		{
			"id": 11,
			"name": "Тяговое оборудование. VCU тягового оборудования"
		},
		{
			"id": 12,
			"name": "Тяговое оборудование. ASPU тягового оборудования"
		},
		{
			"id": 13,
			"name": "Тяговое оборудование. HV1 тягового оборудования"
		},
		{
			"id": 14,
			"name": "Тяговое оборудование. HvV тягового оборудования"
		},
		{
			"id": 15,
			"name": "Тяговое оборудование. Температура тягового оборудования"
		},
		{
			"id": 16,
			"name": "Системы безопасности. Система противозащемления дверей"
		},
		{
			"id": 17,
			"name": "Системы безопасности. Система блокировки хода при открытии дверей"
		},
		{
			"id": 18,
			"name": "Системы безопасности. Система контроля токов утечки"
		},
		{
			"id": 19,
			"name": "Системы безопасности. Аварийное выключение системы"
		},
		{
			"id": 20,
			"name": "Климатическая установка. Режимы работы климатической установки"
		},
		{
			"id": 21,
			"name": "Шины (Колеса). Системные диагностические сообщения"
		},
		{
			"id": 22,
			"name": "Шины (Колеса). Диагностика шин"
		},
		{
			"id": 23,
			"name": "Шины (Колеса). Давление в шинах"
		},
		{
			"id": 24,
			"name": "Свет. Состояние светового оборудования"
		},
		{
			"id": 25,
			"name": "Тормозная система. Компрессор"
		},
		{
			"id": 26,
			"name": "Тормозная система. Состояние тормозной системы"
		},
		{
			"id": 27,
			"name": "Рулевое управление. Состояние рулевого управления"
		},
		{
			"id": 28,
			"name": "Двери. Оборудование дверей"
		},
		{
			"id": 29,
			"name": "Двери. Состояние дверей"
		},
		{
			"id": 30,
			"name": "Двери. Состояние связи"
		},
		{
			"id": 31,
			"name": "Realtime data"
		},
		{
			"id": 888,
			"name": "Fake"
		}
	],
	"vars": {
		"fmi_desc0": "Данные действительны, но превышают стандартный диапазон рабочих значений - максимальный уровень важности",
		"fmi_desc1": "Данные действительны, но находятся ниже стандартного диапазона рабочих значений - максимальный уровень важности",
		"fmi_desc2": "Изменчивые, прерывистые или неправильные данные",
		"fmi_desc3": "Перенапряжение или короткое замыкание",
		"fmi_desc4": "Замыкание линии на минус питания",
		"fmi_desc5": "Ток ниже нормы или обрыв цепи",
		"fmi_desc6": "Ток выше нормы или цепь заземлена",
		"fmi_desc7": "Ошибка связи с механической системой или невозможность ее регулирования",
		"fmi_desc9": "Ненормальная частота обновления",
		"fmi_desc10": "Отклонение в скорости изменения",
		"fmi_desc11": "Режим сбоя не идентифицируется",
		"fmi_desc12": "Плохое интеллектуальное устройство или компонент",
		"fmi_desc13": "Требуется калибровка",
		"fmi_desc14": "Специальные инструкции",
		"fmi_desc16": "Данные действительны, но превышают стандартный диапазон рабочих значений - средний уровень важности",
		"fmi_desc18": "Данные действительны, но находятся ниже стандартного диапазона рабочих значений - средний уровень важности",
		"fmi_desc31": "Установление состояния",

		"adv1": "Обратитесь в сервисный центр",

		"wheel_0": "переднее левое",
		"wheel_1": "переднее правое",
		"wheel_10": "заднее левое внешнее",
		"wheel_13": "заднее правое внешнее",
		"wheel_11": "заднее левое внутреннее",
		"wheel_12": "заднее правое внутреннее",

		"sa_18fecacc": "0xCC",
		"sa_18fecacd": "0xCD",
		"sa_18fecace": "0xCE",

		"value1_1": "да",
		"value1_0": "нет",
		"value2_1": "вкл.",
		"value2_0": "выкл.",
		"value3_1": "ошибка обнаружена",
		"value3_0": "ошибка не обнаружена",
		"value4_0": "вентиляция",
		"value4_1": "обогрев",
		"value4_2": "охлаждение",
		"value4_3": "подогрев",
		"value4_4": "размораживание",
		"value4_5": "автоматический",
		"value4_11": "максимальное охлаждение",
		"value4_12": "максимальный нагрев",
		"value4_15": "выкл.",
		"value5_0": "нет ошибок",
		"value5_1": "активные не критичные ошибки",
		"value5_2": "критичные ошибки (движение запрещено)",
		"value6_2368": "левый поворот",
		"value6_2370": "правый поворот",
		"value7_0": "neutral",
		"value7_1": "reverse",
		"value7_2": "drive"
	},

	"can_index_filter" : {
		"3" : ["18FF01E1", "18FF12E1"]
	},

	"params": [
		{
			"id": "CHRG_1",
			"ui_name": "Distance",
			"desc": "Расстояние, которое может проехать ТС на оставшемся заряде аккумулятора",
			"groupId": 31,
			"flags": "zh"
		},
		{
			"id": "CHRG_2",
			"ui_name": "ChargeProcess",
			"desc": "Идет процесс зарядки",
			"groupId": 31,
			"flags": "zh"
		},
		{
			"id": "CHRG_3",
			"ui_name": "ChargeConnect",
			"desc": "Подключено зарядное устройство",
			"groupId": 31,
			"flags": "zh"
		},
		{
			"id": "CHRG_4",
			"ui_name": "ConsumingEnergyTotal",
			"desc": "Потребляемая энергия общая за текущий день работы (кВтч)",
			"groupId": 31,
			"flags": "zh",
			"expr": "swap2(x)*0.1"
		},
		{
			"id": "CHRG_5",
			"ui_name": "ConsumingEnergyEngine",
			"desc": "Потребляемая энергия на тягу за текущий день работы (кВтч)",
			"groupId": 31,
			"flags": "zh",
			"expr": "swap2(x)*0.1"
		},
		{
			"id": "CHRG_6",
			"ui_name": "ConsumingEnergyClimate",
			"desc": "Потребляемая энергия на климатическую установку за текущий день работы (кВтч)",
			"groupId": 31,
			"flags": "zh",
			"expr": "swap2(x)*0.1"
		},
		{
			"id": "TGBAT_1",
			"ui_name": "ChargePercent",
			"desc": "Уровень зарядки блока тяговых батарей (%)",
			"groupId": 31,
			"flags": "zh",
			"expr" : "x*0.05"
		},
		{
			"id": "TGBAT_4",
			"ui_name": "ChargePercent",
			"desc": "Уровень зарядки блока тяговых батарей (%)",
			"groupId": 31,
			"flags": "zh",
			"expr" : "x*0.05"
		},
		{
			"id": "TGBAT_2",
			"ui_name": "Temperature",
			"desc": "Минимальная температура блока тяговых батарей (оC): {value}",
			"groupId": 15,
			"flags": "d",
			"expr": "x-50"
		},
		{
			"id": "TGBAT_3",
			"ui_name": "Temperature",
			"desc": "Максимальная температура блока тяговых батарей (оC): {value}",
			"groupId": 15,
			"flags": "d",
			"expr": "x-50"
		},
		{
			"id": "PRTZ_1",
			"ui_name": "DoorAntiJammingSystem",
			"desc": "Срабатывание противозажима по времени 1 двери: $value1_{value}",
			"groupId": 16,
			"flags": "d"
		},
		{
			"id": "PRTZ_2",
			"ui_name": "DoorAntiJammingSystem",
			"desc": "Срабатывание противозажима по времени 2 двери: $value1_{value}",
			"groupId": 16,
			"flags": "d"
		},
		{
			"id": "PRTZ_3",
			"ui_name": "DoorAntiJammingSystem",
			"desc": "Срабатывание противозажима по времени 3 двери: $value1_{value}",
			"groupId": 16,
			"flags": "d"
		},
		{
			"id": "PRTZ_4",
			"ui_name": "DoorAntiJammingSystem",
			"desc": "Срабатывание противозажима от активной кромки электрической 1 двери: $value1_{value}",
			"groupId": 16,
			"flags": "d"
		},
		{
			"id": "PRTZ_5",
			"ui_name": "DoorAntiJammingSystem",
			"desc": "Срабатывание противозажима от активной кромки электрической 2 двери: $value1_{value}",
			"groupId": 16,
			"flags": "d"
		},
		{
			"id": "PRTZ_6",
			"ui_name": "DoorAntiJammingSystem",
			"desc": "Срабатывание противозажима от активной кромки электрической 3 двери: $value1_{value}",
			"groupId": 16,
			"flags": "d"
		},
		{
			"id": "PRTZ_7",
			"ui_name": "DoorAntiJammingSystem",
			"desc": "Срабатывание противозажима от активной кромки пневматической 1 двери: $value1_{value}",
			"groupId": 16,
			"flags": "d"
		},
		{
			"id": "PRTZ_8",
			"ui_name": "DoorAntiJammingSystem",
			"desc": "Срабатывание противозажима от активной кромки пневматической 2 двери: $value1_{value}",
			"groupId": 16,
			"flags": "d"
		},
		{
			"id": "PRTZ_9",
			"ui_name": "DoorAntiJammingSystem",
			"desc": "Срабатывание противозажима от активной кромки пневматической 3 двери: $value1_{value}",
			"groupId": 16,
			"flags": "d"
		},
		{
			"id": "PRTZ_10",
			"ui_name": "DoorAntiJammingSystem",
			"desc": "Срабатывание противозажима временного по открыванию 1 двери: $value1_{value}",
			"groupId": 16,
			"flags": "d"
		},
		{
			"id": "PRTZ_11",
			"ui_name": "DoorAntiJammingSystem",
			"desc": "Срабатывание противозажима временного по открыванию 2 двери: $value1_{value}",
			"groupId": 16,
			"flags": "d"
		},
		{
			"id": "PRTZ_12",
			"ui_name": "DoorAntiJammingSystem",
			"desc": "Срабатывание противозажима временного по открыванию 3 двери: $value1_{value}",
			"groupId": 16,
			"flags": "d"
		},
		{
			"id": "NXTFCP_1",
			"ui_name": "DriveBlockOnOpenDoors",
			"desc": "Блокировки хода при открытой двери: $value1_{value}",
			"groupId": 17,
			"flags": "d"
		},
		{
			"id": "NXTFCP_2",
			"ui_name": "PowerLeakControl",
			"desc": "Система контроля токов утечки (IsoWarning): $value2_{value}",
			"groupId": 18,
			"flags": "zd",
			"err_flag": "0"
		},
		{
			"id": "NXTFCP_3",
			"ui_name": "PowerLeakControl",
			"desc": "Система контроля токов утечки (IsoError): $value2_{value}",
			"groupId": 18,
			"flags": "zd",
			"err_flag": "0"
		},
		{
			"id": "NXTFCP_4",
			"ui_name": "ConsumingEnergy",
			"desc": "Ток статора левого двигателя (А): {value}",
			"groupId": 0,
			"flags": "d",
			"expr": "x*2"
		},
		{
			"id": "NXTFCP_5",
			"ui_name": "ConsumingEnergy",
			"desc": "Ток статора правого двигателя (А): {value}",
			"groupId": 0,
			"flags": "d",
			"expr": "x*2"
		},
		{
			"id": "NXTFCP_6",
			"ui_name": "ConsumingEnergy",
			"desc": "Выходной ток преобразователя собственных нужд +24В (А): {value}",
			"groupId": 0,
			"flags": "d",
			"expr": "swap2(x)*0.1"
		},
		{
			"id": "NXTFCP_7",
			"ui_name": "ConsumingEnergy",
			"desc": "Напряжение преобразователя собственных нужд +24В (В): {value}",
			"groupId": 0,
			"flags": "d",
			"expr": "swap2(x)"
		},
		{
			"id": "NXTFCP_8",
			"ui_name": "ConsumingEnergy",
			"desc": "Суточное потребление на тягу (Вт): {value}",
			"groupId": 0,
			"flags": "d",
			"expr": "swap4(x)*0.1"
		},
		{
			"id": "NXTFCP_9",
			"ui_name": "ConsumingEnergy",
			"desc": "Суточное потребление с учётом собственных нужд и климатической установки (Вт): {value}",
			"groupId": 0,
			"flags": "d",
			"expr": "swap4(x)*0.1"
		},
		{
			"id": "NXTFCP_10",
			"ui_name": "EmergencyShutdown",
			"desc": "Аварийное выключение системы с включением в принудительном порядке аварийной световой сигнализации для привлечения внимания: $value2_{value}",
			"groupId": 19,
			"flags": "zd",
			"err_flag": "0"
		},
		{
			"id": "TCO1_1",
			"ui_name": "Speed",
			"desc": "Скорость (км/ч)",
			"groupId": 31,
			"flags": "zh",
			"expr" : "swap2(x)/256"
		},
		{
			"id": "HVAC_STATUS",
			"ui_name": "ClimateSystemRegime",
			"desc": "Режим работы климатической установки: $value4_{value}",
			"groupId": 20,
			"flags": "d"
		},
		{
			"id": "TIRE_PRESS",
			"ui_name": "TiresPressure",
			"desc": "Колесо: $wheel_{wheel_num}. Давление (Бар): {value}",
			"groupId": 23,
			"flags": "d"
		},
		{
			"id": "LTM1",
			"ui_name": "LightEquipmentState",
			"desc": "Обрыв в цепи левого переднего указателя габаритов: $value3_{value}",
			"err_code": "SPN: 7001, FMI: 5",
			"groupId": 24,
			"flags": "zd",
			"err_flag": "z"
		},
		{
			"id": "LTM2",
			"ui_name": "LightEquipmentState",
			"desc": "Обрыв в цепи правого переднего указателя габаритов: $value3_{value}",
			"err_code": "SPN: 7002, FMI: 5",
			"groupId": 24,
			"flags": "zd",
			"err_flag": "z"
		},
		{
			"id": "LTM3",
			"ui_name": "LightEquipmentState",
			"desc": "Обрыв в цепи левого переднего указателя поворота: $value3_{value}",
			"err_code": "SPN: 7003, FMI: 5",
			"groupId": 24,
			"flags": "zd",
			"err_flag": "z"
		},
		{
			"id": "LTM4",
			"ui_name": "LightEquipmentState",
			"desc": "Обрыв в цепи правого переднего указателя поворота: $value3_{value}",
			"err_code": "SPN: 7004, FMI: 5",
			"groupId": 24,
			"flags": "zd",
			"err_flag": "z"
		},
		{
			"id": "LTM5",
			"ui_name": "LightEquipmentState",
			"desc": "Обрыв в цепи левой передней ПТФ: $value3_{value}",
			"err_code": "SPN: 7005, FMI: 5",
			"groupId": 24,
			"flags": "zd",
			"err_flag": "z"
		},
		{
			"id": "LTM6",
			"ui_name": "LightEquipmentState",
			"desc": "Обрыв в цепи правой передней ПТФ: $value3_{value}",
			"err_code": "SPN: 7006, FMI: 5",
			"groupId": 24,
			"flags": "zd",
			"err_flag": "z"
		},
		{
			"id": "LTM7",
			"ui_name": "LightEquipmentState",
			"desc": "Обрыв в цепи левой фары дальнего света: $value3_{value}",
			"err_code": "SPN: 7007, FMI: 5",
			"groupId": 24,
			"flags": "zd",
			"err_flag": "z"
		},
		{
			"id": "LTM8",
			"ui_name": "LightEquipmentState",
			"desc": "Обрыв в цепи правой фары дальнего света: $value3_{value}",
			"err_code": "SPN: 7008, FMI: 5",
			"groupId": 24,
			"flags": "zd",
			"err_flag": "z"
		},
		{
			"id": "LTM9",
			"ui_name": "LightEquipmentState",
			"desc": "Обрыв в цепи левой фары ближнего света: $value3_{value}",
			"err_code": "SPN: 7009, FMI: 5",
			"groupId": 24,
			"flags": "zd",
			"err_flag": "z"
		},
		{
			"id": "LTM10",
			"ui_name": "LightEquipmentState",
			"desc": "Обрыв в цепи правой фары ближнего света: $value3_{value}",
			"err_code": "SPN: 7010, FMI: 5",
			"groupId": 24,
			"flags": "zd",
			"err_flag": "z"
		},
		{
			"id": "LTM11",
			"ui_name": "LightEquipmentState",
			"desc": "Обрыв в цепи левого ДХО: $value3_{value}",
			"err_code": "SPN: 7011, FMI: 5",
			"groupId": 24,
			"flags": "zd",
			"err_flag": "z"
		},
		{
			"id": "LTM12",
			"ui_name": "LightEquipmentState",
			"desc": "Обрыв в цепи левого заднего указателя габаритов: $value3_{value}",
			"err_code": "SPN: 7021, FMI: 5",
			"groupId": 24,
			"flags": "zd",
			"err_flag": "z"
		},
		{
			"id": "LTM13",
			"ui_name": "LightEquipmentState",
			"desc": "Обрыв в цепи правого заднего указателя габаритов: $value3_{value}",
			"err_code": "SPN: 7022, FMI: 5",
			"groupId": 24,
			"flags": "zd",
			"err_flag": "z"
		},
		{
			"id": "LTM14",
			"ui_name": "LightEquipmentState",
			"desc": "Обрыв в цепи левого заднего указателя поворота: $value3_{value}",
			"err_code": "SPN: 7023, FMI: 5",
			"groupId": 24,
			"flags": "zd",
			"err_flag": "z"
		},
		{
			"id": "LTM15",
			"ui_name": "LightEquipmentState",
			"desc": "Обрыв в цепи правого заднего указателя поворота: $value3_{value}",
			"err_code": "SPN: 7024, FMI: 5",
			"groupId": 24,
			"flags": "zd",
			"err_flag": "z"
		},
		{
			"id": "LTM16",
			"ui_name": "LightEquipmentState",
			"desc": "Обрыв в цепи задних ПТФ: $value3_{value}",
			"err_code": "SPN: 7025, FMI: 5",
			"groupId": 24,
			"flags": "zd",
			"err_flag": "z"
		},
		{
			"id": "LTM17",
			"ui_name": "LightEquipmentState",
			"desc": "Обрыв в цепи стоп-сигналов: $value3_{value}",
			"err_code": "SPN: 7026, FMI: 5",
			"groupId": 24,
			"flags": "zd",
			"err_flag": "z"
		},
		{
			"id": "LTM18",
			"ui_name": "LightEquipmentState",
			"desc": "Обрыв в цепи сигнализатора заднего хода: $value3_{value}",
			"err_code": "SPN: 7027, FMI: 5",
			"groupId": 24,
			"flags": "zd",
			"err_flag": "z"
		},
		{
			"id": "Compressor1",
			"ui_name": "Compressor",
			"desc": "Внимание! Критическая температура компрессора тормозной системы: $value3_{value}",
			"err_code": "SA: 0x7F, PGN: FF39, SPN: Byte 1, Bit 14, Len = 2",
			"advice": "$adv1",
			"groupId": 25,
			"flags": "zd",
			"err_flag": "0"
		},
		{
			"id": "Compressor2",
			"ui_name": "Compressor",
			"desc": "Внимание! Критическая температура воздуха на входе осушителя: $value3_{value}",
			"err_code": "SA: 0x7F, PGN: FF39, SPN: Byte 2, Bit 16, Len = 2",
			"advice": "$adv1",
			"groupId": 25,
			"flags": "zd",
			"err_flag": "0"
		},
		{
			"id": "Compressor3",
			"ui_name": "Compressor",
			"desc": "Внимание! Критическая температура эл. двигателя компрессора тормозной системы: $value3_{value}",
			"err_code": "SA: 0x7F, PGN: FF39, SPN: Byte 2, Bit 18, Len = 2",
			"advice": "$adv1",
			"groupId": 25,
			"flags": "zd",
			"err_flag": "0"
		},
		{
			"id": "Compressor4",
			"ui_name": "Compressor",
			"desc": "Внимание! Заменить воздушный фильтр компрессора тормозной системы: $value3_{value}",
			"err_code": "SA: 0x7F, PGN: FF39, SPN: Byte 0, Bit 4, Len = 2",
			"advice": "$adv1",
			"groupId": 25,
			"flags": "zd",
			"err_flag": "0"
		},
		{
			"id": "Compressor5",
			"ui_name": "Compressor",
			"desc": "Блокировка! Перегрев компрессора тормозной системы: $value3_{value}",
			"err_code": "SA: 0x7F, PGN: FF39, SPN: Byte 0, Bit 0, Len = 2",
			"advice": "$adv1",
			"groupId": 25,
			"flags": "zd",
			"err_flag": "0"
		},
		{
			"id": "Compressor6",
			"ui_name": "Compressor",
			"desc": "Блокировка! Перегрев воздуха на входе осушителя: $value3_{value}",
			"err_code": "SA: 0x7F, PGN: FF39, SPN: Byte 0, Bit 6, Len = 2",
			"advice": "$adv1",
			"groupId": 25,
			"flags": "zd",
			"err_flag": "0"
		},
		{
			"id": "Compressor7",
			"ui_name": "Compressor",
			"desc": "Блокировка! Перегрев электродвигателя компрессора тормозной системы: $value3_{value}",
			"err_code": "SA: 0x7F, PGN: FF39, SPN: Byte 2, Bit 20, Len = 2",
			"advice": "$adv1",
			"groupId": 25,
			"flags": "zd",
			"err_flag": "0"
		},
		{
			"id": "Compressor8",
			"ui_name": "Compressor",
			"desc": "Блокировка! Низкий уровень масла в компрессоре тормозной системы: $value3_{value}",
			"err_code": "SA: 0x7F, PGN: FF39, SPN: Byte 0, Bit 2, Len = 2",
			"advice": "$adv1",
			"groupId": 25,
			"flags": "zd",
			"err_flag": "0"
		},
		{
			"id": "Compressor9",
			"ui_name": "Compressor",
			"desc": "Блокировка! Заменить воздушный фильтр компрессора тормозной системы: $value3_{value}",
			"err_code": "SA: 0x7F, PGN: FF39, SPN: Byte 2, Bit 22, Len = 2",
			"advice": "$adv1",
			"groupId": 25,
			"flags": "zd",
			"err_flag": "0"
		},
		{
			"id": "Compressor10",
			"ui_name": "Compressor",
			"desc": "Блокировка! Нет высокого напряжения: $value3_{value}",
			"err_code": "SA: 0x7F, PGN: FF39, SPN: Byte 3, Bit 24, Len = 2",
			"advice": "$adv1",
			"groupId": 25,
			"flags": "zd",
			"err_flag": "0"
		},
		{
			"id": "Compressor11",
			"ui_name": "Compressor",
			"desc": "Блокировка! Ошибка инвертора: $value3_{value}",
			"err_code": "SA: 0x7F, PGN: FF39, SPN: Byte 1, Bit 12, Len = 2",
			"advice": "$adv1",
			"groupId": 25,
			"flags": "zd",
			"err_flag": "0"
		},
		{
			"id": "DM1|DBCRC",
			"spn": 520202,
			"ui_name": "TractionBatteries",
			"desc": "Ошибка CRC конфигурационного файла: $value3_{value}",
			"groupId": 10,
			"flags": "zh",
			"err_flag": "0",
			"dm1Name": "DM1",
			"err_code": "SA: 0xE1, SPN: {spn}",
			"advice": "$adv1"
		},
		{
			"id": "DM1|DBS",
			"spn": 520203,
			"ui_name": "TractionBatteries",
			"desc": "Неисправность в цепи датчика тока: $value3_{value}",
			"groupId": 10,
			"flags": "zh",
			"err_flag": "0",
			"dm1Name": "DM1",
			"err_code": "SA: 0xE1, SPN: {spn}",
			"advice": "$adv1"
		},
		{
			"id": "DM1|DBС",
			"spn": 520204,
			"ui_name": "TractionBatteries",
			"desc": "Предзаряд: $value3_{value}",
			"groupId": 10,
			"flags": "zh",
			"err_flag": "0",
			"dm1Name": "DM1",
			"err_code": "SA: 0xE1, SPN: {spn}",
			"advice": "$adv1"
		},
		{
			"id": "DM1|DBI",
			"spn": 520205,
			"ui_name": "TractionBatteries",
			"desc": "Перегрузка по току: $value3_{value}",
			"groupId": 10,
			"flags": "zh",
			"err_flag": "0",
			"dm1Name": "DM1",
			"err_code": "SA: 0xE1, SPN: {spn}",
			"advice": "$adv1"
		},
		{
			"id": "DM1|DBOC",
			"spn": 520206,
			"ui_name": "TractionBatteries",
			"desc": "Открыта крышка системы накопителей: $value3_{value}",
			"groupId": 10,
			"flags": "zh",
			"err_flag": "0",
			"dm1Name": "DM1",
			"err_code": "SA: 0xE1, SPN: {spn}",
			"advice": "$adv1"
		},
		{
			"id": "DM1|DBBC",
			"spn": 520207,
			"ui_name": "TractionBatteries",
			"desc": "Неисправность контактора: $value3_{value}",
			"groupId": 10,
			"flags": "zh",
			"err_flag": "0",
			"dm1Name": "DM1",
			"err_code": "SA: 0xE1, SPN: {spn}",
			"advice": "$adv1"
		},
		{
			"id": "DM1|DBSM",
			"spn": 520208,
			"ui_name": "TractionBatteries",
			"desc": "Отстутсвие сигнала от накопителей (master): $value3_{value}",
			"groupId": 10,
			"flags": "zh",
			"err_flag": "0",
			"dm1Name": "DM1",
			"err_code": "SA: 0xE1, SPN: {spn}",
			"advice": "$adv1"
		},
		{
			"id": "DM1|DBAN",
			"spn": 520209,
			"ui_name": "TractionBatteries",
			"desc": "Неверное количество аккумуляторных модулей: $value3_{value}",
			"groupId": 10,
			"flags": "zh",
			"err_flag": "0",
			"dm1Name": "DM1",
			"err_code": "SA: 0xE1, SPN: {spn}",
			"advice": "$adv1"
		},
		{
			"id": "DM1|DBWV",
			"spn": 520210,
			"ui_name": "TractionBatteries",
			"desc": "Напряжение на ячейках за пределами рабочего диапазона: $value3_{value}",
			"groupId": 10,
			"flags": "zh",
			"err_flag": "0",
			"dm1Name": "DM1",
			"err_code": "SA: 0xE1, SPN: {spn}",
			"advice": "$adv1"
		},
		{
			"id": "DM1|DBBO",
			"spn": 520211,
			"ui_name": "TractionBatteries",
			"desc": "Перегрев батареи: $value3_{value}",
			"groupId": 10,
			"flags": "zh",
			"err_flag": "0",
			"dm1Name": "DM1",
			"err_code": "SA: 0xE1, SPN: {spn}",
			"advice": "$adv1"
		},
		{
			"id": "DM1|DBBF",
			"spn": 520212,
			"ui_name": "TractionBatteries",
			"desc": "Переохлаждение батареи: $value3_{value}",
			"groupId": 10,
			"flags": "zh",
			"err_flag": "0",
			"dm1Name": "DM1",
			"err_code": "SA: 0xE1, SPN: {spn}",
			"advice": "$adv1"
		},
		{
			"id": "DM1|DBES",
			"spn": 520213,
			"ui_name": "TractionBatteries",
			"desc": "Ошибка накопителя (slave): $value3_{value}",
			"groupId": 10,
			"flags": "zh",
			"err_flag": "0",
			"dm1Name": "DM1",
			"err_code": "SA: 0xE1, SPN: {spn}",
			"advice": "$adv1"
		},
		{
			"id": "DM1|DBB",
			"spn": 520214,
			"ui_name": "TractionBatteries",
			"desc": "Не все батареи в сети: $value3_{value}",
			"groupId": 10,
			"flags": "zh",
			"err_flag": "0",
			"dm1Name": "DM1",
			"err_code": "SA: 0xE1, SPN: {spn}",
			"advice": "$adv1"
		},
		{
			"id": "DM1|DBBI",
			"spn": 520215,
			"ui_name": "TractionBatteries",
			"desc": "Большая разница токов батарей: $value3_{value}",
			"groupId": 10,
			"flags": "zh",
			"err_flag": "0",
			"dm1Name": "DM1",
			"err_code": "SA: 0xE1, SPN: {spn}",
			"advice": "$adv1"
		},
		{
			"id": "DM1|DBBV",
			"spn": 520216,
			"ui_name": "TractionBatteries",
			"desc": "Большая разница напряжений батарей: $value3_{value}",
			"groupId": 10,
			"flags": "zh",
			"err_flag": "0",
			"dm1Name": "DM1",
			"err_code": "SA: 0xE1, SPN: {spn}",
			"advice": "$adv1"
		},
		{
			"id": "DM1|DBV",
			"spn": 520217,
			"ui_name": "TractionBatteries",
			"desc": "Нет связи с VCU: $value3_{value}",
			"groupId": 10,
			"flags": "zh",
			"err_flag": "0",
			"dm1Name": "DM1",
			"err_code": "SA: 0xE1, SPN: {spn}",
			"advice": "$adv1"
		},
		{
			"id": "DM1|DVCRC",
			"spn": 520232,
			"ui_name": "VCU",
			"desc": "Ошибка CRC конфигурационного файла: $value3_{value}",
			"groupId": 11,
			"flags": "zh",
			"err_flag": "0",
			"dm1Name": "DM1",
			"err_code": "SA: 0xE1, SPN: {spn}",
			"advice": "$adv1"
		},
		{
			"id": "DM1|DVSI",
			"spn": 520233,
			"ui_name": "VCU",
			"desc": "Превышение тока статора двигателя: $value3_{value}",
			"groupId": 11,
			"flags": "zh",
			"err_flag": "0",
			"dm1Name": "DM1",
			"err_code": "SA: 0xE1, SPN: {spn}",
			"advice": "$adv1"
		},
		{
			"id": "DM1|DVESE",
			"spn": 520234,
			"ui_name": "VCU",
			"desc": "Превышение допустимой скорости двигателя: $value3_{value}",
			"groupId": 11,
			"flags": "zh",
			"err_flag": "0",
			"dm1Name": "DM1",
			"err_code": "SA: 0xE1, SPN: {spn}",
			"advice": "$adv1"
		},
		{
			"id": "DM1|DVEO",
			"spn": 520235,
			"ui_name": "VCU",
			"desc": "Перегрев двигателя: $value3_{value}",
			"groupId": 11,
			"flags": "zh",
			"err_flag": "0",
			"dm1Name": "DM1",
			"err_code": "SA: 0xE1, SPN: {spn}",
			"advice": "$adv1"
		},
		{
			"id": "DM1|DVIVE",
			"spn": 520236,
			"ui_name": "VCU",
			"desc": "Напряжение на инверторе за пределами рабочего диапазона: $value3_{value}",
			"groupId": 11,
			"flags": "zh",
			"err_flag": "0",
			"dm1Name": "DM1",
			"err_code": "SA: 0xE1, SPN: {spn}",
			"advice": "$adv1"
		},
		{
			"id": "DM1|DVIO",
			"spn": 520237,
			"ui_name": "VCU",
			"desc": "Перегрев инвертора: $value3_{value}",
			"groupId": 11,
			"flags": "zh",
			"err_flag": "0",
			"dm1Name": "DM1",
			"err_code": "SA: 0xE1, SPN: {spn}",
			"advice": "$adv1"
		},
		{
			"id": "DM1|DVICU",
			"spn": 520238,
			"ui_name": "VCU",
			"desc": "Неустойчивая связь инвертора по CAN: $value3_{value}",
			"groupId": 11,
			"flags": "zh",
			"err_flag": "0",
			"dm1Name": "DM1",
			"err_code": "SA: 0xE1, SPN: {spn}",
			"advice": "$adv1"
		},
		{
			"id": "DM1|DVIE",
			"spn": 520239,
			"ui_name": "VCU",
			"desc": "Ошибка инвертора: $value3_{value}",
			"groupId": 11,
			"flags": "zh",
			"err_flag": "0",
			"dm1Name": "DM1",
			"err_code": "SA: 0xE1, SPN: {spn}",
			"advice": "$adv1"
		},
		{
			"id": "DM1|DVPEC",
			"spn": 520240,
			"ui_name": "VCU",
			"desc": "Аварийное сотояние пантографа. Сопротивление изоляции достигло критического значения: $value3_{value}",
			"groupId": 11,
			"flags": "zh",
			"err_flag": "0",
			"dm1Name": "DM1",
			"err_code": "SA: 0xE1, SPN: {spn}",
			"advice": "$adv1"
		},
		{
			"id": "DM1|DVCD",
			"spn": 520241,
			"ui_name": "VCU",
			"desc": "Неисправность в цепи зарядного устройства: $value3_{value}",
			"groupId": 11,
			"flags": "zh",
			"err_flag": "0",
			"dm1Name": "DM1",
			"err_code": "SA: 0xE1, SPN: {spn}",
			"advice": "$adv1"
		},
		{
			"id": "DM1|DVDSE",
			"spn": 520242,
			"ui_name": "VCU",
			"desc": "Ошибка системы накопителей: $value3_{value}",
			"groupId": 11,
			"flags": "zh",
			"err_flag": "0",
			"dm1Name": "DM1",
			"err_code": "SA: 0xE1, SPN: {spn}",
			"advice": "$adv1"
		},
		{
			"id": "DM1|DVASPUCE",
			"spn": 520243,
			"ui_name": "VCU",
			"desc": "Нет связи с ASPU: $value3_{value}",
			"groupId": 11,
			"flags": "zh",
			"err_flag": "0",
			"dm1Name": "DM1",
			"err_code": "SA: 0xE1, SPN: {spn}",
			"advice": "$adv1"
		},
		{
			"id": "DM1|DVBMSCE",
			"spn": 520244,
			"ui_name": "VCU",
			"desc": "Нет связи с BMS: $value3_{value}",
			"groupId": 11,
			"flags": "zh",
			"err_flag": "0",
			"dm1Name": "DM1",
			"err_code": "SA: 0xE1, SPN: {spn}",
			"advice": "$adv1"
		},
		{
			"id": "DM1|DVHV1CE",
			"spn": 520245,
			"ui_name": "VCU",
			"desc": "Нет связи с HV1: $value3_{value}",
			"groupId": 11,
			"flags": "zh",
			"err_flag": "0",
			"dm1Name": "DM1",
			"err_code": "SA: 0xE1, SPN: {spn}",
			"advice": "$adv1"
		},
		{
			"id": "DM1|DVHV2CO",
			"spn": 520246,
			"ui_name": "VCU",
			"desc": "Открыта крышка блока HV2: $value3_{value}",
			"groupId": 11,
			"flags": "zh",
			"err_flag": "0",
			"dm1Name": "DM1",
			"err_code": "SA: 0xE1, SPN: {spn}",
			"advice": "$adv1"
		},
		{
			"id": "DM1|DVCLC",
			"spn": 520247,
			"ui_name": "VCU",
			"desc": "Утечка тока. Сопротивление изоляции достигло критического значения: $value3_{value}",
			"groupId": 11,
			"flags": "zh",
			"err_flag": "0",
			"dm1Name": "DM1",
			"err_code": "SA: 0xE1, SPN: {spn}",
			"advice": "$adv1"
		},
		{
			"id": "DM1|DVCLNC",
			"spn": 520248,
			"ui_name": "VCU",
			"desc": "Утечка тока. Сопротивление изоляции близко к критическому: $value3_{value}",
			"groupId": 11,
			"flags": "zh",
			"err_flag": "0",
			"dm1Name": "DM1",
			"err_code": "SA: 0xE1, SPN: {spn}",
			"advice": "$adv1"
		},
		{
			"id": "DM1|DVPENC",
			"spn": 520249,
			"ui_name": "VCU",
			"desc": "Аварийное состояние пантографа. Сопротивление изоляции близко к критическому: $value3_{value}",
			"groupId": 11,
			"flags": "zh",
			"err_flag": "0",
			"dm1Name": "DM1",
			"err_code": "SA: 0xE1, SPN: {spn}",
			"advice": "$adv1"
		},
		{
			"id": "DM1|DVI1MCE",
			"spn": 520250,
			"ui_name": "VCU",
			"desc": "Нет связи с модулем сопротивления изоляции 1: $value3_{value}",
			"groupId": 11,
			"flags": "zh",
			"err_flag": "0",
			"dm1Name": "DM1",
			"err_code": "SA: 0xE1, SPN: {spn}",
			"advice": "$adv1"
		},
		{
			"id": "DM1|DVI2MCE",
			"spn": 520251,
			"ui_name": "VCU",
			"desc": "Нет связи с модулем сопротивления изоляции 2: $value3_{value}",
			"groupId": 11,
			"flags": "zh",
			"err_flag": "0",
			"dm1Name": "DM1",
			"err_code": "SA: 0xE1, SPN: {spn}",
			"advice": "$adv1"
		},
		{
			"id": "DM1|DVHV1CE_2",
			"spn": 520252,
			"ui_name": "VCU",
			"desc": "Нет связи с модулем измерения HV 1: $value3_{value}",
			"groupId": 11,
			"flags": "zh",
			"err_flag": "0",
			"dm1Name": "DM1",
			"err_code": "SA: 0xE1, SPN: {spn}",
			"advice": "$adv1"
		},
		{
			"id": "DM1|DVHV2CE",
			"spn": 520253,
			"ui_name": "VCU",
			"desc": "Нет связи с модулем измерения HV 2: $value3_{value}",
			"groupId": 11,
			"flags": "zh",
			"err_flag": "0",
			"dm1Name": "DM1",
			"err_code": "SA: 0xE1, SPN: {spn}",
			"advice": "$adv1"
		},
		{
			"id": "DM1|DVOCCE",
			"spn": 520254,
			"ui_name": "VCU",
			"desc": "Нет связи с бортовыми зарядными устройствами: $value3_{value}",
			"groupId": 11,
			"flags": "zh",
			"err_flag": "0",
			"dm1Name": "DM1",
			"err_code": "SA: 0xE1, SPN: {spn}",
			"advice": "$adv1"
		},
		{
			"id": "DM1|DVCCE",
			"spn": 520255,
			"ui_name": "VCU",
			"desc": "Ошибка контакторов разъема Combo2: $value3_{value}",
			"groupId": 11,
			"flags": "zh",
			"err_flag": "0",
			"dm1Name": "DM1",
			"err_code": "SA: 0xE1, SPN: {spn}",
			"advice": "$adv1"
		},
		{
			"id": "DM1|DVLCE",
			"spn": 520256,
			"ui_name": "VCU",
			"desc": "Ошибка линейных контакторов: $value3_{value}",
			"groupId": 11,
			"flags": "zh",
			"err_flag": "0",
			"dm1Name": "DM1",
			"err_code": "SA: 0xE1, SPN: {spn}",
			"advice": "$adv1"
		},
		{
			"id": "DM1|DASCRC",
			"spn": 520262,
			"ui_name": "ASPU",
			"desc": "Ошибка CRC конфигурационного файла: $value3_{value}",
			"groupId": 12,
			"flags": "zh",
			"err_flag": "0",
			"dm1Name": "DM1",
			"err_code": "SA: 0xE1, SPN: {spn}",
			"advice": "$adv1"
		},
		{
			"id": "DM1|DASPE",
			"spn": 520263,
			"ui_name": "ASPU",
			"desc": "Ошибка чтения педали: $value3_{value}",
			"groupId": 12,
			"flags": "zh",
			"err_flag": "0",
			"dm1Name": "DM1",
			"err_code": "SA: 0xE1, SPN: {spn}",
			"advice": "$adv1"
		},
		{
			"id": "DM1|DASMRE",
			"spn": 520264,
			"desc": "Ошибка чтения ручного ретардера: $value3_{value}",
			"groupId": 12,
			"flags": "zh",
			"err_flag": "0",
			"dm1Name": "DM1",
			"err_code": "SA: 0xE1, SPN: {spn}",
			"advice": "$adv1"
		},
		{
			"id": "DM1|DASSE",
			"spn": 520265,
			"ui_name": "ASPU",
			"desc": "Ошибка чтения селектора: $value3_{value}",
			"groupId": 12,
			"flags": "zh",
			"err_flag": "0",
			"dm1Name": "DM1",
			"err_code": "SA: 0xE1, SPN: {spn}",
			"advice": "$adv1"
		},
		{
			"id": "DM1|DASV",
			"spn": 520266,
			"ui_name": "ASPU",
			"desc": "Нет связи с VCU: $value3_{value}",
			"groupId": 12,
			"flags": "zh",
			"err_flag": "0",
			"dm1Name": "DM1",
			"err_code": "SA: 0xE1, SPN: {spn}",
			"advice": "$adv1"
		},
		{
			"id": "DM1|DASCE",
			"spn": 520267,
			"ui_name": "ASPU",
			"desc": "Нет связи со штатной системой автомобиля: $value3_{value}",
			"groupId": 12,
			"flags": "zh",
			"err_flag": "0",
			"dm1Name": "DM1",
			"err_code": "SA: 0xE1, SPN: {spn}",
			"advice": "$adv1"
		},
		{
			"id": "DM1|DHCRC",
			"spn": 520282,
			"ui_name": "HV1",
			"desc": "Ошибка CRC конфигурационного файла: $value3_{value}",
			"groupId": 13,
			"flags": "zh",
			"err_flag": "0",
			"dm1Name": "DM1",
			"err_code": "SA: 0xE1, SPN: {spn}",
			"advice": "$adv1"
		},
		{
			"id": "DM1|DHCS1",
			"spn": 520283,
			"ui_name": "HV1",
			"desc": "Ошибка датчика тока 1: $value3_{value}",
			"groupId": 13,
			"flags": "zh",
			"err_flag": "0",
			"dm1Name": "DM1",
			"err_code": "SA: 0xE1, SPN: {spn}",
			"advice": "$adv1"
		},
		{
			"id": "DM1|DHCS2",
			"spn": 520284,
			"ui_name": "HV1",
			"desc": "Ошибка датчика тока 2: $value3_{value}",
			"groupId": 13,
			"flags": "zh",
			"err_flag": "0",
			"dm1Name": "DM1",
			"err_code": "SA: 0xE1, SPN: {spn}",
			"advice": "$adv1"
		},
		{
			"id": "DM1|DHCO",
			"spn": 520285,
			"ui_name": "HV1",
			"desc": "Открыта крышка блока HV1: $value3_{value}",
			"groupId": 13,
			"flags": "zh",
			"err_flag": "0",
			"dm1Name": "DM1",
			"err_code": "SA: 0xE1, SPN: {spn}",
			"advice": "$adv1"
		},
		{
			"id": "DM1|DHCM",
			"spn": 520286,
			"ui_name": "HV1",
			"desc": "Неисправность контактора: $value3_{value}",
			"groupId": 13,
			"flags": "zh",
			"err_flag": "0",
			"dm1Name": "DM1",
			"err_code": "SA: 0xE1, SPN: {spn}",
			"advice": "$adv1"
		},
		{
			"id": "DM1|DHV",
			"spn": 520287,
			"ui_name": "HV1",
			"desc": "Нет связи с VCU: $value3_{value}",
			"groupId": 13,
			"flags": "zh",
			"err_flag": "0",
			"dm1Name": "DM1",
			"err_code": "SA: 0xE1, SPN: {spn}",
			"advice": "$adv1"
		},
		{
			"id": "DM1|DHU",
			"spn": 520288,
			"ui_name": "HV1",
			"desc": "Нет связи с UFC: $value3_{value}",
			"groupId": 13,
			"flags": "zh",
			"err_flag": "0",
			"dm1Name": "DM1",
			"err_code": "SA: 0xE1, SPN: {spn}",
			"advice": "$adv1"
		},
		{
			"id": "DM1|DHPH",
			"spn": 520289,
			"ui_name": "HV1",
			"desc": "Пантограф не достиг верхнего положения: $value3_{value}",
			"groupId": 13,
			"flags": "zh",
			"err_flag": "0",
			"dm1Name": "DM1",
			"err_code": "SA: 0xE1, SPN: {spn}",
			"advice": "$adv1"
		},
		{
			"id": "DM1|DHPL",
			"spn": 520290,
			"ui_name": "HV1",
			"desc": "Пантограф не достиг нижнего положения: $value3_{value}",
			"groupId": 13,
			"flags": "zh",
			"err_flag": "0",
			"dm1Name": "DM1",
			"err_code": "SA: 0xE1, SPN: {spn}",
			"advice": "$adv1"
		},
		{
			"id": "DM1|DHPI",
			"spn": 520291,
			"ui_name": "HV1",
			"desc": "Перегрузка по току привода пантографа: $value3_{value}",
			"groupId": 13,
			"flags": "zh",
			"err_flag": "0",
			"dm1Name": "DM1",
			"err_code": "SA: 0xE1, SPN: {spn}",
			"advice": "$adv1"
		},
		{
			"id": "DM1|DHSCRC",
			"spn": 520302,
			"ui_name": "HvV",
			"desc": "Ошибка CRC конфигурационного файла: $value3_{value}",
			"groupId": 14,
			"flags": "zh",
			"err_flag": "0",
			"dm1Name": "DM1",
			"err_code": "SA: 0xE1, SPN: {spn}",
			"advice": "$adv1"
		},
		{
			"id": "DM1|DHSVCU",
			"spn": 520303,
			"ui_name": "HvV",
			"desc": "Нет связи с VCU: $value3_{value}",
			"groupId": 14,
			"flags": "zh",
			"err_flag": "0",
			"dm1Name": "DM1",
			"err_code": "SA: 0xE1, SPN: {spn}",
			"advice": "$adv1"
		},
		{
			"id": "DCBN|0",
			"spn": 7200,
			"ui_name": "DoorsEquipment",
			"desc": "Короткое замыкание ключа 1. Замыкание на минус питания или перегрузка: $value3_{value}",
			"groupId": 28,
			"flags": "zh",
			"err_flag": "0",
			"dm1Name": "DCBN",
			"err_code": "SA: $sa_{canid}, SPN: {spn}, FMI: {fmi}",
			"advice": "$adv1"
		},
		{
			"id": "DCBN|1",
			"spn": 7201,
			"ui_name": "DoorsEquipment",
			"desc": "Короткое замыкание ключа 2 \"Катушка - закрыть\". Замыкание на минус питания или перегрузка: $value3_{value}",
			"groupId": 28,
			"flags": "zh",
			"err_flag": "0",
			"dm1Name": "DCBN",
			"err_code": "SA: $sa_{canid}, SPN: {spn}, FMI: {fmi}",
			"advice": "$adv1"
		},
		{
			"id": "DCBN|2",
			"spn": 7202,
			"ui_name": "DoorsEquipment",
			"desc": "Короткое замыкание ключа 3 \"Подсветка требования остановки\". Замыкание на минус питания или перегрузка: $value3_{value}",
			"groupId": 28,
			"flags": "zh",
			"err_flag": "0",
			"dm1Name": "DCBN",
			"err_code": "SA: $sa_{canid}, SPN: {spn}, FMI: {fmi}",
			"advice": "$adv1"
		},
		{
			"id": "DCBN|3",
			"spn": 7203,
			"ui_name": "DoorsEquipment",
			"desc": "Короткое замыкание ключа 4 \"Подсветка активации пасс. кнопки\". Замыкание на минус питания или перегрузка: $value3_{value}",
			"groupId": 28,
			"flags": "zh",
			"err_flag": "0",
			"dm1Name": "DCBN",
			"err_code": "SA: $sa_{canid}, SPN: {spn}, FMI: {fmi}",
			"advice": "$adv1"
		},
		{
			"id": "DCBN|4",
			"spn": 7204,
			"ui_name": "DoorsEquipment",
			"desc": "Короткое замыкание ключа 5 \"Катушка - открыть\". Замыкание на минус питания или перегрузка: $value3_{value}",
			"groupId": 28,
			"flags": "zh",
			"err_flag": "0",
			"dm1Name": "DCBN",
			"err_code": "SA: $sa_{canid}, SPN: {spn}, FMI: {fmi}",
			"advice": "$adv1"
		},
		{
			"id": "DCBN|5",
			"spn": 7205,
			"ui_name": "DoorsEquipment",
			"desc": "Короткое замыкание ключа 6 \"Подсветка кнопки инвалида\" (дверь 2), \"Вход <<открыть>> служебный\" (дверь 1). Замыкание на минус питания или перегрузка: $value3_{value}",
			"groupId": 28,
			"flags": "zh",
			"err_flag": "0",
			"dm1Name": "DCBN",
			"err_code": "SA: $sa_{canid}, SPN: {spn}, FMI: {fmi}",
			"advice": "$adv1"
		},
		{
			"id": "DCBN|6",
			"spn": 7206,
			"ui_name": "DoorsEquipment",
			"desc": "Короткое замыкание ключа 7 \"Кнопка инвалида\" (дверь 2), \"Вход <<закрыть>> служебный\" (дверь 1). Замыкание на минус питания или перегрузка: $value3_{value}",
			"groupId": 28,
			"flags": "zh",
			"err_flag": "0",
			"dm1Name": "DCBN",
			"err_code": "SA: $sa_{canid}, SPN: {spn}, FMI: {fmi}",
			"advice": "$adv1"
		},
		{
			"id": "DCBN|7",
			"spn": 7207,
			"ui_name": "DoorsEquipment",
			"desc": "Короткое замыкание ключа 8 \"AK1\". Замыкание на минус питания или перегрузка: $value3_{value}",
			"groupId": 28,
			"flags": "zh",
			"err_flag": "0",
			"dm1Name": "DCBN",
			"err_code": "SA: $sa_{canid}, SPN: {spn}, FMI: {fmi}",
			"advice": "$adv1"
		},
		{
			"id": "DCBN|8",
			"spn": 7208,
			"ui_name": "DoorsEquipment",
			"desc": "Короткое замыкание ключа 9 \"Вентилятор воздушн. завесы\". Замыкание на минус питания или перегрузка: $value3_{value}",
			"groupId": 28,
			"flags": "zh",
			"err_flag": "0",
			"dm1Name": "DCBN",
			"err_code": "SA: $sa_{canid}, SPN: {spn}, FMI: {fmi}",
			"advice": "$adv1"
		},
		{
			"id": "DCBN|9",
			"spn": 7209,
			"ui_name": "DoorsEquipment",
			"desc": "Короткое замыкание ключа 10 \"Освещение дверного проема\". Замыкание на минус питания или перегрузка: $value3_{value}",
			"groupId": 28,
			"flags": "zh",
			"err_flag": "0",
			"dm1Name": "DCBN",
			"err_code": "SA: $sa_{canid}, SPN: {spn}, FMI: {fmi}",
			"advice": "$adv1"
		},
		{
			"id": "DCBN|10",
			"spn": 7210,
			"ui_name": "DoorsEquipment",
			"desc": "Короткое замыкание ключа 11 \"AK2\". Замыкание на минус питания или перегрузка: $value3_{value}",
			"groupId": 28,
			"flags": "zh",
			"err_flag": "0",
			"dm1Name": "DCBN",
			"err_code": "SA: $sa_{canid}, SPN: {spn}, FMI: {fmi}",
			"advice": "$adv1"
		},
		{
			"id": "DCBN|11",
			"spn": 7211,
			"ui_name": "DoorsEquipment",
			"desc": "Короткое замыкание ключа 12 \"Питание кнопок и датчиков\". Замыкание на минус питания или перегрузка: $value3_{value}",
			"groupId": 28,
			"flags": "zh",
			"err_flag": "0",
			"dm1Name": "DCBN",
			"err_code": "SA: $sa_{canid}, SPN: {spn}, FMI: {fmi}",
			"advice": "$adv1"
		},
		{
			"id": "DCBN|12",
			"spn": 7212,
			"ui_name": "DoorsState",
			"desc": "Флаг 0 (биты 0, 1) - Нарушена очередность закрывания створок. Сначала закрывается 2-я створка, потом 1-я: $value3_{value}",
			"groupId": 29,
			"flags": "zh",
			"err_flag": "0",
			"dm1Name": "DCBN",
			"err_code": "SA: $sa_{canid}, SPN: {spn}, FMI: {fmi}",
			"advice": "$adv1"
		},
		{
			"id": "DCBN|13",
			"spn": 7213,
			"ui_name": "ConnectionState",
			"desc": "Флаг 1 (биты 2, 3) - Перебои связи. Отправлено после восстановления связи: $value3_{value}",
			"groupId": 30,
			"flags": "zh",
			"err_flag": "0",
			"dm1Name": "DCBN",
			"err_code": "SA: $sa_{canid}, SPN: {spn}, FMI: {fmi}",
			"advice": "$adv1"
		},
		{
			"id": "EBS|0",
			"spn": 1439,
			"ui_name": "BrakeSystemState",
			"desc": "Аварийное состояние электронной тормозной системы (EBS): $value3_{value}",
			"groupId": 26,
			"flags": "zh",
			"err_flag": "0",
			"dm1Name": "EBS",
			"err_code": "SA: 0B, SPN: {spn}",
			"advice": "$adv1"
		},
		{
			"id": "EBS|1",
			"spn": 1438,
			"ui_name": "BrakeSystemState",
			"desc": "Неисправность электронной тормозной системы (EBS): $value3_{value}",
			"groupId": 26,
			"flags": "zh",
			"err_flag": "0",
			"dm1Name": "EBS",
			"err_code": "SA: 0B, SPN: {spn}",
			"advice": "$adv1"
		},
		{
			"id": "WHEEL|1_1",
			"spn": 3905,
			"fmi": 5,
			"ui_name": "SteeringWheelState",
			"desc": "Подключение группы кнопок 1. Обрыв линии: $value3_{value}",
			"groupId": 27,
			"flags": "zh",
			"err_flag": "0",
			"dm1Name": "WHEEL",
			"err_code": "SA: 0x4B, SPN: {spn}, FMI: {fmi}",
			"advice": "$adv1"
		},
		{
			"id": "WHEEL|1_2",
			"spn": 3905,
			"fmi": 4,
			"ui_name": "SteeringWheelState",
			"desc": "Подключение группы кнопок 1. Замыкание линии на минус питания: $value3_{value}",
			"groupId": 27,
			"flags": "zh",
			"err_flag": "0",
			"dm1Name": "WHEEL",
			"err_code": "SA: 0x4B, SPN: {spn}, FMI: {fmi}",
			"advice": "$adv1"
		},
		{
			"id": "WHEEL|2_1",
			"spn": 3911,
			"fmi": 5,
			"ui_name": "SteeringWheelState",
			"desc": "Подключение группы кнопок 2. Обрыв линии: $value3_{value}",
			"groupId": 27,
			"flags": "zh",
			"err_flag": "0",
			"dm1Name": "WHEEL",
			"err_code": "SA: 0x4B, SPN: {spn}, FMI: {fmi}",
			"advice": "$adv1"
		},
		{
			"id": "WHEEL|2_2",
			"spn": 3911,
			"fmi": 4,
			"ui_name": "SteeringWheelState",
			"desc": "Подключение группы кнопок 2. Замыкание линии на минус питания: $value3_{value}",
			"groupId": 27,
			"flags": "zh",
			"err_flag": "0",
			"dm1Name": "WHEEL",
			"err_code": "SA: 0x4B, SPN: {spn}\", FMI: {fmi}",
			"advice": "$adv1"
		},
		{
			"id": "WHEEL|3_1",
			"spn": 3913,
			"fmi": 5,
			"ui_name": "SteeringWheelState",
			"desc": "Подключение группы кнопок 3. Обрыв линии: $value3_{value}",
			"groupId": 27,
			"flags": "zh",
			"err_flag": "0",
			"dm1Name": "WHEEL",
			"err_code": "SA: 0x4B, SPN: {spn}, FMI: {fmi}",
			"advice": "$adv1"
		},
		{
			"id": "WHEEL|3_2",
			"spn": 3913,
			"fmi": 4,
			"ui_name": "SteeringWheelState",
			"desc": "Подключение группы кнопок 3. Замыкание линии на минус питания: $value3_{value}",
			"groupId": 27,
			"flags": "zh",
			"err_flag": "0",
			"dm1Name": "WHEEL",
			"err_code": "SA: 0x4B, SPN: {spn}, FMI: {fmi}",
			"advice": "$adv1"
		},
				{
			"id": "WHEEL|6",
			"spn": 1487,
			"ui_name": "SteeringWheelState",
			"desc": "Линия управления подсветкой кнопок рулевого колеса. Замыкание линии на минус питания: $value3_{value}",
			"groupId": 27,
			"flags": "zh",
			"err_flag": "0",
			"dm1Name": "WHEEL",
			"err_code": "SA: 0x4B, SPN: {spn}, FMI: {fmi}",
			"advice": "$adv1"
		},
		{
			"id": "WHEEL|7",
			"spn": 639,
			"ui_name": "SteeringWheelState",
			"desc": "Линия CAN. Неправильное время обновления на шине CAN: $value3_{value}",
			"groupId": 27,
			"flags": "zh",
			"err_flag": "0",
			"dm1Name": "WHEEL",
			"err_code": "SA: 0x4B, SPN: {spn}, FMI: {fmi}",
			"advice": "$adv1"
		},
		{
			"id": "ECAS|0_1",
			"spn": 274210,
			"fmi": 3,
			"ui_name": "SolenoidValves_1",
			"desc": "Источник питания для электромагнитных клапанов (центральное реле клапана). Перенапряжение или короткое замыкание: $value3_{value}",
			"groupId": 1,
			"flags": "zh",
			"err_flag": "0",
			"dm1Name": "ECAS",
			"err_code": "SA: 0x2F, SPN: {spn}, FMI: {fmi}",
			"advice": "$adv1"
		},
		{
			"id": "ECAS|0_2",
			"spn": 274210,
			"fmi": 5,
			"ui_name": "SolenoidValves_1",
			"desc": "Источник питания для электромагнитных клапанов (центральное реле клапана). Ток ниже нормы или обрыв цепи: $value3_{value}",
			"groupId": 1,
			"flags": "zh",
			"err_flag": "0",
			"dm1Name": "ECAS",
			"err_code": "SA: 0x2F, SPN: {spn}, FMI: {fmi}",
			"advice": "$adv1"
		},
		{
			"id": "ECAS|0_3",
			"spn": 274210,
			"fmi": 6,
			"ui_name": "SolenoidValves_1",
			"desc": "Источник питания для электромагнитных клапанов (центральное реле клапана). Ток выше нормы или цепь заземлена: $value3_{value}",
			"groupId": 1,
			"flags": "zh",
			"err_flag": "0",
			"dm1Name": "ECAS",
			"err_code": "SA: 0x2F, SPN: {spn}, FMI: {fmi}",
			"advice": "$adv1"
		},
		{
			"id": "ECAS|1_1",
			"spn": 274177,
			"fmi": 3,
			"ui_name": "SolenoidValves",
			"desc": "2/2 электромагнитный клапан передний мост справа. Перенапряжение или короткое замыкание: $value3_{value}",
			"groupId": 1,
			"flags": "zh",
			"err_flag": "0",
			"dm1Name": "ECAS",
			"err_code": "SA: 0x2F, SPN: {spn}, FMI: {fmi}",
			"advice": "$adv1"
		},
		{
			"id": "ECAS|1_2",
			"spn": 274177,
			"fmi": 5,
			"ui_name": "SolenoidValves",
			"desc": "2/2 электромагнитный клапан передний мост справа. Ток ниже нормы или обрыв цепи: $value3_{value}",
			"groupId": 1,
			"flags": "zh",
			"err_flag": "0",
			"dm1Name": "ECAS",
			"err_code": "SA: 0x2F, SPN: {spn}, FMI: {fmi}",
			"advice": "$adv1"
		},
		{
			"id": "ECAS|1_3",
			"spn": 274177,
			"fmi": 6,
			"ui_name": "SolenoidValves",
			"desc": "2/2 электромагнитный клапан передний мост справа. Ток выше нормы или цепь заземлена: $value3_{value}",
			"groupId": 1,
			"flags": "zh",
			"err_flag": "0",
			"dm1Name": "ECAS",
			"err_code": "SA: 0x2F, SPN: {spn}, FMI: {fmi}",
			"advice": "$adv1"
		},
		{
			"id": "ECAS|2_1",
			"spn": 274178,
			"fmi": 3,
			"ui_name": "SolenoidValves",
			"desc": "2/2 электромагнитный клапан передний мост слева. Перенапряжение или короткое замыкание: $value3_{value}",
			"groupId": 1,
			"flags": "zh",
			"err_flag": "0",
			"dm1Name": "ECAS",
			"err_code": "SA: 0x2F, SPN: {spn}, FMI: {fmi}",
			"advice": "$adv1"
		},
		{
			"id": "ECAS|2_2",
			"spn": 274178,
			"fmi": 5,
			"ui_name": "SolenoidValves",
			"desc": "2/2 электромагнитный клапан передний мост слева. Ток ниже нормы или обрыв цепи: $value3_{value}",
			"groupId": 1,
			"flags": "zh",
			"err_flag": "0",
			"dm1Name": "ECAS",
			"err_code": "SA: 0x2F, SPN: {spn}, FMI: {fmi}",
			"advice": "$adv1"
		},
		{
			"id": "ECAS|2_3",
			"spn": 274178,
			"fmi": 6,
			"ui_name": "SolenoidValves",
			"desc": "2/2 электромагнитный клапан передний мост слева. Ток выше нормы или цепь заземлена: $value3_{value}",
			"groupId": 1,
			"flags": "zh",
			"err_flag": "0",
			"dm1Name": "ECAS",
			"err_code": "SA: 0x2F, SPN: {spn}, FMI: {fmi}",
			"advice": "$adv1"
		},
		{
			"id": "ECAS|3_1",
			"spn": 274179,
			"fmi": 3,
			"ui_name": "SolenoidValves",
			"desc": "2/2 электромагнитный клапан передний мост справа. Перенапряжение или короткое замыкание: $value3_{value}",
			"groupId": 1,
			"flags": "zh",
			"err_flag": "0",
			"dm1Name": "ECAS",
			"err_code": "SA: 0x2F, SPN: {spn}, FMI: {fmi}",
			"advice": "$adv1"
		},
		{
			"id": "ECAS|3_2",
			"spn": 274179,
			"fmi": 5,
			"ui_name": "SolenoidValves",
			"desc": "2/2 электромагнитный клапан передний мост справа. Ток ниже нормы или обрыв цепи: $value3_{value}",
			"groupId": 1,
			"flags": "zh",
			"err_flag": "0",
			"dm1Name": "ECAS",
			"err_code": "SA: 0x2F, SPN: {spn}, FMI: {fmi}",
			"advice": "$adv1"
		},
		{
			"id": "ECAS|3_3",
			"spn": 274179,
			"fmi": 6,
			"ui_name": "SolenoidValves",
			"desc": "2/2 электромагнитный клапан передний мост справа. Ток выше нормы или цепь заземлена: $value3_{value}",
			"groupId": 1,
			"flags": "zh",
			"err_flag": "0",
			"dm1Name": "ECAS",
			"err_code": "SA: 0x2F, SPN: {spn}, FMI: {fmi}",
			"advice": "$adv1"
		},
		{
			"id": "ECAS|4_1",
			"spn": 274180,
			"fmi": 3,
			"ui_name": "SolenoidValves",
			"desc": "2/2 электромагнитный клапан передний мост слева. Перенапряжение или короткое замыкание: $value3_{value}",
			"groupId": 1,
			"flags": "zh",
			"err_flag": "0",
			"dm1Name": "ECAS",
			"err_code": "SA: 0x2F, SPN: {spn}, FMI: {fmi}",
			"advice": "$adv1"
		},
		{
			"id": "ECAS|4_2",
			"spn": 274180,
			"fmi": 5,
			"ui_name": "SolenoidValves",
			"desc": "2/2 электромагнитный клапан передний мост слева. Ток ниже нормы или обрыв цепи: $value3_{value}",
			"groupId": 1,
			"flags": "zh",
			"err_flag": "0",
			"dm1Name": "ECAS",
			"err_code": "SA: 0x2F, SPN: {spn}, FMI: {fmi}",
			"advice": "$adv1"
		},
		{
			"id": "ECAS|4_3",
			"spn": 274180,
			"fmi": 6,
			"ui_name": "SolenoidValves",
			"desc": "2/2 электромагнитный клапан передний мост слева. Ток выше нормы или цепь заземлена: $value3_{value}",
			"groupId": 1,
			"flags": "zh",
			"err_flag": "0",
			"dm1Name": "ECAS",
			"err_code": "SA: 0x2F, SPN: {spn}, FMI: {fmi}",
			"advice": "$adv1"
		},
		{
			"id": "ECAS|5_1",
			"spn": 274183,
			"fmi": 3,
			"ui_name": "SolenoidValves",
			"desc": "Центральный 3/2 электромагнитный клапан ведущей оси. Перенапряжение или короткое замыкание: $value3_{value}",
			"groupId": 1,
			"flags": "zh",
			"err_flag": "0",
			"dm1Name": "ECAS",
			"err_code": "SA: 0x2F, SPN: {spn}, FMI: {fmi}",
			"advice": "$adv1"
		},
		{
			"id": "ECAS|5_2",
			"spn": 274183,
			"fmi": 5,
			"ui_name": "SolenoidValves",
			"desc": "Центральный 3/2 электромагнитный клапан ведущей оси. Ток ниже нормы или обрыв цепи: $value3_{value}",
			"groupId": 1,
			"flags": "zh",
			"err_flag": "0",
			"dm1Name": "ECAS",
			"err_code": "SA: 0x2F, SPN: {spn}, FMI: {fmi}",
			"advice": "$adv1"
		},
		{
			"id": "ECAS|5_3",
			"spn": 274183,
			"fmi": 6,
			"ui_name": "SolenoidValves",
			"desc": "Центральный 3/2 электромагнитный клапан ведущей оси. Ток выше нормы или цепь заземлена: $value3_{value}",
			"groupId": 1,
			"flags": "zh",
			"err_flag": "0",
			"dm1Name": "ECAS",
			"err_code": "SA: 0x2F, SPN: {spn}, FMI: {fmi}",
			"advice": "$adv1"
		},
		{
			"id": "ECAS|6_1",
			"spn": 274190,
			"fmi": 3,
			"ui_name": "SolenoidValves",
			"desc": "Поперечный дроссель электромагнитного клапана. Перенапряжение или короткое замыкание: $value3_{value}",
			"groupId": 1,
			"flags": "zh",
			"err_flag": "0",
			"dm1Name": "ECAS",
			"err_code": "SA: 0x2F, SPN: {spn}, FMI: {fmi}",
			"advice": "$adv1"
		},
		{
			"id": "ECAS|6_2",
			"spn": 274190,
			"fmi": 5,
			"ui_name": "SolenoidValves",
			"desc": "Поперечный дроссель электромагнитного клапана. Ток ниже нормы или обрыв цепи: $value3_{value}",
			"groupId": 1,
			"flags": "zh",
			"err_flag": "0",
			"dm1Name": "ECAS",
			"err_code": "SA: 0x2F, SPN: {spn}, FMI: {fmi}",
			"advice": "$adv1"
		},
		{
			"id": "ECAS|6_3",
			"spn": 274190,
			"fmi": 6,
			"ui_name": "SolenoidValves",
			"desc": "Поперечный дроссель электромагнитного клапана. Ток выше нормы или цепь заземлена: $value3_{value}",
			"groupId": 1,
			"flags": "zh",
			"err_flag": "0",
			"dm1Name": "ECAS",
			"err_code": "SA: 0x2F, SPN: {spn}, FMI: {fmi}",
			"advice": "$adv1"
		},
		{
			"id": "ECAS|7_1",
			"spn": 274192,
			"fmi": 2,
			"ui_name": "DistanceSensors",
			"desc": "Датчик расстояния переднего моста справа. Изменчивые, прерывистые или неправильные данные: $value3_{value}",
			"groupId": 2,
			"flags": "zh",
			"err_flag": "0",
			"dm1Name": "ECAS",
			"err_code": "SA: 0x2F, SPN: {spn}, FMI: {fmi}",
			"advice": "$adv1"
		},
		{
			"id": "ECAS|7_2",
			"spn": 274192,
			"fmi": 3,
			"ui_name": "DistanceSensors",
			"desc": "Датчик расстояния переднего моста справа. Перенапряжение или короткое замыкание: $value3_{value}",
			"groupId": 2,
			"flags": "zh",
			"err_flag": "0",
			"dm1Name": "ECAS",
			"err_code": "SA: 0x2F, SPN: {spn}, FMI: {fmi}",
			"advice": "$adv1"
		},
		{
			"id": "ECAS|7_3",
			"spn": 274192,
			"fmi": 5,
			"ui_name": "DistanceSensors",
			"desc": "Датчик расстояния переднего моста справа. Ток ниже нормы или обрыв цепи: $value3_{value}",
			"groupId": 2,
			"flags": "zh",
			"err_flag": "0",
			"dm1Name": "ECAS",
			"err_code": "SA: 0x2F, SPN: {spn}, FMI: {fmi}",
			"advice": "$adv1"
		},
		{
			"id": "ECAS|7_4",
			"spn": 274192,
			"fmi": 6,
			"ui_name": "DistanceSensors",
			"desc": "Датчик расстояния переднего моста справа. Ток выше нормы или цепь заземлена: $value3_{value}",
			"groupId": 2,
			"flags": "zh",
			"err_flag": "0",
			"dm1Name": "ECAS",
			"err_code": "SA: 0x2F, SPN: {spn}, FMI: {fmi}",
			"advice": "$adv1"
		},
		{
			"id": "ECAS|8_1",
			"spn": 274193,
			"fmi": 2,
			"ui_name": "DistanceSensors",
			"desc": "Датчик расстояния переднего моста слева. Изменчивые, прерывистые или неправильные данные: $value3_{value}",
			"groupId": 2,
			"flags": "zh",
			"err_flag": "0",
			"dm1Name": "ECAS",
			"err_code": "SA: 0x2F, SPN: {spn}, FMI: {fmi}",
			"advice": "$adv1"
		},
		{
			"id": "ECAS|8_2",
			"spn": 274193,
			"fmi": 3,
			"ui_name": "DistanceSensors",
			"desc": "Датчик расстояния переднего моста слева. Перенапряжение или короткое замыкание: $value3_{value}",
			"groupId": 2,
			"flags": "zh",
			"err_flag": "0",
			"dm1Name": "ECAS",
			"err_code": "SA: 0x2F, SPN: {spn}, FMI: {fmi}",
			"advice": "$adv1"
		},
		{
			"id": "ECAS|8_3",
			"spn": 274193,
			"fmi": 5,
			"ui_name": "DistanceSensors",
			"desc": "Датчик расстояния переднего моста слева. Ток ниже нормы или обрыв цепи: $value3_{value}",
			"groupId": 2,
			"flags": "zh",
			"err_flag": "0",
			"dm1Name": "ECAS",
			"err_code": "SA: 0x2F, SPN: {spn}, FMI: {fmi}",
			"advice": "$adv1"
		},
		{
			"id": "ECAS|8_4",
			"spn": 274193,
			"fmi": 6,
			"ui_name": "DistanceSensors",
			"desc": "Датчик расстояния переднего моста слева. Ток выше нормы или цепь заземлена: $value3_{value}",
			"groupId": 2,
			"flags": "zh",
			"err_flag": "0",
			"dm1Name": "ECAS",
			"err_code": "SA: 0x2F, SPN: {spn}, FMI: {fmi}",
			"advice": "$adv1"
		},
		{
			"id": "ECAS|9_1",
			"spn": 274194,
			"fmi": 2,
			"ui_name": "DistanceSensors",
			"desc": "Датчик расстояния ведущего моста справа. Изменчивые, прерывистые или неправильные данные: $value3_{value}",
			"groupId": 2,
			"flags": "zh",
			"err_flag": "0",
			"dm1Name": "ECAS",
			"err_code": "SA: 0x2F, SPN: {spn}, FMI: {fmi}",
			"advice": "$adv1"
		},
		{
			"id": "ECAS|9_2",
			"spn": 274194,
			"fmi": 3,
			"ui_name": "DistanceSensors",
			"desc": "Датчик расстояния ведущего моста справа. Перенапряжение или короткое замыкание: $value3_{value}",
			"groupId": 2,
			"flags": "zh",
			"err_flag": "0",
			"dm1Name": "ECAS",
			"err_code": "SA: 0x2F, SPN: {spn}, FMI: {fmi}",
			"advice": "$adv1"
		},
		{
			"id": "ECAS|9_3",
			"spn": 274194,
			"fmi": 5,
			"ui_name": "DistanceSensors",
			"desc": "Датчик расстояния ведущего моста справа. Ток ниже нормы или обрыв цепи: $value3_{value}",
			"groupId": 2,
			"flags": "zh",
			"err_flag": "0",
			"dm1Name": "ECAS",
			"err_code": "SA: 0x2F, SPN: {spn}, FMI: {fmi}",
			"advice": "$adv1"
		},
		{
			"id": "ECAS|9_4",
			"spn": 274194,
			"fmi": 6,
			"ui_name": "DistanceSensors",
			"desc": "Датчик расстояния ведущего моста справа. Ток выше нормы или цепь заземлена: $value3_{value}",
			"groupId": 2,
			"flags": "zh",
			"err_flag": "0",
			"dm1Name": "ECAS",
			"err_code": "SA: 0x2F, SPN: {spn}, FMI: {fmi}",
			"advice": "$adv1"
		},
		{
			"id": "ECAS|10_1",
			"spn": 274195,
			"fmi": 2,
			"ui_name": "DistanceSensors",
			"desc": "Датчик расстояния ведущего моста слева. Изменчивые, прерывистые или неправильные данные: $value3_{value}",
			"groupId": 2,
			"flags": "zh",
			"err_flag": "0",
			"dm1Name": "ECAS",
			"err_code": "SA: 0x2F, SPN: {spn}, FMI: {fmi}",
			"advice": "$adv1"
		},
		{
			"id": "ECAS|10_2",
			"spn": 274195,
			"fmi": 3,
			"ui_name": "DistanceSensors",
			"desc": "Датчик расстояния ведущего моста слева. Перенапряжение или короткое замыкание: $value3_{value}",
			"groupId": 2,
			"flags": "zh",
			"err_flag": "0",
			"dm1Name": "ECAS",
			"err_code": "SA: 0x2F, SPN: {spn}, FMI: {fmi}",
			"advice": "$adv1"
		},
		{
			"id": "ECAS|10_3",
			"spn": 274195,
			"fmi": 5,
			"ui_name": "DistanceSensors",
			"desc": "Датчик расстояния ведущего моста слева. Ток ниже нормы или обрыв цепи: $value3_{value}",
			"groupId": 2,
			"flags": "zh",
			"err_flag": "0",
			"dm1Name": "ECAS",
			"err_code": "SA: 0x2F, SPN: {spn}, FMI: {fmi}",
			"advice": "$adv1"
		},
		{
			"id": "ECAS|10_4",
			"spn": 274195,
			"fmi": 6,
			"ui_name": "DistanceSensors",
			"desc": "Датчик расстояния ведущего моста слева. Ток выше нормы или цепь заземлена: $value3_{value}",
			"groupId": 2,
			"flags": "zh",
			"err_flag": "0",
			"dm1Name": "ECAS",
			"err_code": "SA: 0x2F, SPN: {spn}, FMI: {fmi}",
			"advice": "$adv1"
		},
		{
			"id": "ECAS|11_1",
			"spn": 274198,
			"fmi": 3,
			"ui_name": "PressureSensors",
			"desc": "Датчик давления переднего моста справа. Перенапряжение или короткое замыкание: $value3_{value}",
			"groupId": 32,
			"flags": "zh",
			"err_flag": "0",
			"dm1Name": "ECAS",
			"err_code": "SA: 0x2F, SPN: {spn}, FMI: {fmi}",
			"advice": "$adv1"
		},
		{
			"id": "ECAS|11_2",
			"spn": 274198,
			"fmi": 5,
			"ui_name": "PressureSensors",
			"desc": "Датчик давления переднего моста справа. Ток ниже нормы или обрыв цепи: $value3_{value}",
			"groupId": 32,
			"flags": "zh",
			"err_flag": "0",
			"dm1Name": "ECAS",
			"err_code": "SA: 0x2F, SPN: {spn}, FMI: {fmi}",
			"advice": "$adv1"
		},
		{
			"id": "ECAS|11_3",
			"spn": 274198,
			"fmi": 6,
			"ui_name": "PressureSensors",
			"desc": "Датчик давления переднего моста справа. Ток выше нормы или цепь заземлена: $value3_{value}",
			"groupId": 32,
			"flags": "zh",
			"err_flag": "0",
			"dm1Name": "ECAS",
			"err_code": "SA: 0x2F, SPN: {spn}, FMI: {fmi}",
			"advice": "$adv1"
		},
		{
			"id": "ECAS|12_1",
			"spn": 274200,
			"fmi": 3,
			"ui_name": "PressureSensors",
			"desc": "Датчик давления ведущего моста справа. Перенапряжение или короткое замыкание: $value3_{value}",
			"groupId": 32,
			"flags": "zh",
			"err_flag": "0",
			"dm1Name": "ECAS",
			"err_code": "SA: 0x2F, SPN: {spn}, FMI: {fmi}",
			"advice": "$adv1"
		},
		{
			"id": "ECAS|12_2",
			"spn": 274200,
			"fmi": 5,
			"ui_name": "PressureSensors",
			"desc": "Датчик давления ведущего моста справа. Ток ниже нормы или обрыв цепи: $value3_{value}",
			"groupId": 32,
			"flags": "zh",
			"err_flag": "0",
			"dm1Name": "ECAS",
			"err_code": "SA: 0x2F, SPN: {spn}, FMI: {fmi}",
			"advice": "$adv1"
		},
		{
			"id": "ECAS|12_3",
			"spn": 274200,
			"fmi": 6,
			"ui_name": "PressureSensors",
			"desc": "Датчик давления ведущего моста справа. Ток выше нормы или цепь заземлена: $value3_{value}",
			"groupId": 32,
			"flags": "zh",
			"err_flag": "0",
			"dm1Name": "ECAS",
			"err_code": "SA: 0x2F, SPN: {spn}, FMI: {fmi}",
			"advice": "$adv1"
		},
		{
			"id": "ECAS|13_1",
			"spn": 274201,
			"fmi": 3,
			"ui_name": "PressureSensors",
			"desc": "Датчик давления ведущего моста слева. Перенапряжение или короткое замыкание: $value3_{value}",
			"groupId": 32,
			"flags": "zh",
			"err_flag": "0",
			"dm1Name": "ECAS",
			"err_code": "SA: 0x2F, SPN: {spn}, FMI: {fmi}",
			"advice": "$adv1"
		},
		{
			"id": "ECAS|13_2",
			"spn": 274201,
			"fmi": 5,
			"ui_name": "PressureSensors",
			"desc": "Датчик давления ведущего моста слева. Ток ниже нормы или обрыв цепи: $value3_{value}",
			"groupId": 32,
			"flags": "zh",
			"err_flag": "0",
			"dm1Name": "ECAS",
			"err_code": "SA: 0x2F, SPN: {spn}, FMI: {fmi}",
			"advice": "$adv1"
		},
		{
			"id": "ECAS|13_3",
			"spn": 274201,
			"fmi": 6,
			"ui_name": "PressureSensors",
			"desc": "Датчик давления ведущего моста слева. Ток выше нормы или цепь заземлена: $value3_{value}",
			"groupId": 32,
			"flags": "zh",
			"err_flag": "0",
			"dm1Name": "ECAS",
			"err_code": "SA: 0x2F, SPN: {spn}, FMI: {fmi}",
			"advice": "$adv1"
		},
		{
			"id": "ECAS|14_1",
			"spn": 274205,
			"fmi": 12,
			"ui_name": "SecurityEquipment",
			"desc": "Охранное устройство (датчик определения бокового движения). Плохое интеллектуальное устройство или компонент: $value3_{value}",
			"groupId": 3,
			"flags": "zh",
			"err_flag": "0",
			"dm1Name": "ECAS",
			"err_code": "SA: 0x2F, SPN: {spn}, FMI: {fmi}",
			"advice": "$adv1"
		},
		{
			"id": "ECAS|15_1",
			"spn": 274220,
			"fmi": 3,
			"ui_name": "SolenoidValves",
			"desc": "Центральный 3/2 электромагнитный клапан передней оси. Перенапряжение или короткое замыкание: $value3_{value}",
			"groupId": 1,
			"flags": "zh",
			"err_flag": "0",
			"dm1Name": "ECAS",
			"err_code": "SA: 0x2F, SPN: {spn}, FMI: {fmi}",
			"advice": "$adv1"
		},
		{
			"id": "ECAS|15_2",
			"spn": 274220,
			"fmi": 5,
			"ui_name": "SolenoidValves",
			"desc": "Центральный 3/2 электромагнитный клапан передней оси. Ток ниже нормы или обрыв цепи: $value3_{value}",
			"groupId": 1,
			"flags": "zh",
			"err_flag": "0",
			"dm1Name": "ECAS",
			"err_code": "SA: 0x2F, SPN: {spn}, FMI: {fmi}",
			"advice": "$adv1"
		},
		{
			"id": "ECAS|15_3",
			"spn": 274220,
			"fmi": 6,
			"ui_name": "SolenoidValves",
			"desc": "Центральный 3/2 электромагнитный клапан передней оси. Ток выше нормы или цепь заземлена: $value3_{value}",
			"groupId": 1,
			"flags": "zh",
			"err_flag": "0",
			"dm1Name": "ECAS",
			"err_code": "SA: 0x2F, SPN: {spn}, FMI: {fmi}",
			"advice": "$adv1"
		},
		{
			"id": "ECAS|16_1",
			"spn": 274222,
			"fmi": 3,
			"ui_name": "PowerSources",
			"desc": "Источник питания для датчиков давления. Перенапряжение или короткое замыкание: $value3_{value}",
			"groupId": 4,
			"flags": "zh",
			"err_flag": "0",
			"dm1Name": "ECAS",
			"err_code": "SA: 0x2F, SPN: {spn}, FMI: {fmi}",
			"advice": "$adv1"
		},
		{
			"id": "ECAS|16_2",
			"spn": 274222,
			"fmi": 6,
			"ui_name": "PowerSources",
			"desc": "Источник питания для датчиков давления. Ток ниже нормы или обрыв цепи: $value3_{value}",
			"groupId": 4,
			"flags": "zh",
			"err_flag": "0",
			"dm1Name": "ECAS",
			"err_code": "SA: 0x2F, SPN: {spn}, FMI: {fmi}",
			"advice": "$adv1"
		},
		{
			"id": "ECAS|16_3",
			"spn": 274222,
			"fmi": 11,
			"ui_name": "PowerSources",
			"desc": "Источник питания для датчиков давления. Режим сбоя не идентифицируется: $value3_{value}",
			"groupId": 4,
			"flags": "zh",
			"err_flag": "0",
			"dm1Name": "ECAS",
			"err_code": "SA: 0x2F, SPN: {spn}, FMI: {fmi}",
			"advice": "$adv1"
		},
		{
			"id": "ECAS|17_1",
			"spn": 274223,
			"fmi": 3,
			"ui_name": "PowerSources",
			"desc": "Источник питания для пультов дистанционного управления ECAS. Перенапряжение или короткое замыкание: $value3_{value}",
			"groupId": 4,
			"flags": "zh",
			"err_flag": "0",
			"dm1Name": "ECAS",
			"err_code": "SA: 0x2F, SPN: {spn}, FMI: {fmi}",
			"advice": "$adv1"
		},
		{
			"id": "ECAS|17_2",
			"spn": 274223,
			"fmi": 6,
			"ui_name": "PowerSources",
			"desc": "Источник питания для пультов дистанционного управления ECAS. Ток ниже нормы или обрыв цепи: $value3_{value}",
			"groupId": 4,
			"flags": "zh",
			"err_flag": "0",
			"dm1Name": "ECAS",
			"err_code": "SA: 0x2F, SPN: {spn}, FMI: {fmi}",
			"advice": "$adv1"
		},
		{
			"id": "ECAS|18",
			"spn": 274407,
			"ui_name": "CanState",
			"desc": "Включена CAN шина (SAE J 1939 Data link). Ненормальная частота обновления: $value3_{value}",
			"groupId": 5,
			"flags": "zh",
			"err_flag": "0",
			"dm1Name": "ECAS",
			"err_code": "SA: 0x2F, SPN: {spn}, FMI: {fmi}",
			"advice": "$adv1"
		},
		{
			"id": "ECAS|19",
			"spn": 274236,
			"ui_name": "CanState",
			"desc": "Ошибка связи CAN. Ненормальная частота обновления: $value3_{value}",
			"groupId": 5,
			"flags": "zh",
			"err_flag": "0",
			"dm1Name": "ECAS",
			"err_code": "SA: 0x2F, SPN: {spn}, FMI: {fmi}",
			"advice": "$adv1"
		},
		{
			"id": "ECAS|20",
			"spn": 274237,
			"ui_name": "CanState",
			"desc": "CAN сообщение CCVS. Ненормальная частота обновления: $value3_{value}",
			"groupId": 5,
			"flags": "zh",
			"err_flag": "0",
			"dm1Name": "ECAS",
			"err_code": "SA: 0x2F, SPN: {spn}, FMI: {fmi}",
			"advice": "$adv1"
		},
		{
			"id": "ECAS|21",
			"spn": 274238,
			"ui_name": "CanState",
			"desc": "CAN сообщение EEC1. Ненормальная частота обновления: $value3_{value}",
			"groupId": 5,
			"flags": "zh",
			"err_flag": "0",
			"dm1Name": "ECAS",
			"err_code": "SA: 0x2F, SPN: {spn}, FMI: {fmi}",
			"advice": "$adv1"
		},
		{
			"id": "ECAS|22",
			"spn": 274239,
			"ui_name": "CanState",
			"desc": "CAN сообщение EBC2. Ненормальная частота обновления: $value3_{value}",
			"groupId": 5,
			"flags": "zh",
			"err_flag": "0",
			"dm1Name": "ECAS",
			"err_code": "SA: 0x2F, SPN: {spn}, FMI: {fmi}",
			"advice": "$adv1"
		},
		{
			"id": "ECAS|23",
			"spn": 274241,
			"ui_name": "CanState",
			"desc": "CAN сообщение AIR1 (ECAM). Ненормальная частота обновления: $value3_{value}",
			"groupId": 5,
			"flags": "zh",
			"err_flag": "0",
			"dm1Name": "ECAS",
			"err_code": "SA: 0x2F, SPN: {spn}, FMI: {fmi}",
			"advice": "$adv1"
		},
		{
			"id": "ECAS|24",
			"spn": 274244,
			"ui_name": "CanState",
			"desc": "CAN сообщение ТСО1. Ненормальная частота обновления: $value3_{value}",
			"groupId": 5,
			"flags": "zh",
			"err_flag": "0",
			"dm1Name": "ECAS",
			"err_code": "SA: 0x2F, SPN: {spn}, FMI: {fmi}",
			"advice": "$adv1"
		},
		{
			"id": "ECAS|25",
			"spn": 274245,
			"ui_name": "CanState",
			"desc": "CAN сообщение Time and Date. Ненормальная частота обновления: $value3_{value}",
			"groupId": 5,
			"flags": "zh",
			"err_flag": "0",
			"dm1Name": "ECAS",
			"err_code": "SA: 0x2F, SPN: {spn}, FMI: {fmi}",
			"advice": "$adv1"
		},
		{
			"id": "ECAS|26",
			"spn": 274249,
			"ui_name": "CanState",
			"desc": "CAN сообщение Articulation Information. Ненормальная частота обновления: $value3_{value}",
			"groupId": 5,
			"flags": "zh",
			"err_flag": "0",
			"dm1Name": "ECAS",
			"err_code": "SA: 0x2F, SPN: {spn}, FMI: {fmi}",
			"advice": "$adv1"
		},
		{
			"id": "ECAS|27",
			"spn": 274250,
			"ui_name": "CanState",
			"desc": "CAN сообщение EAC1. Ненормальная частота обновления: $value3_{value}",
			"groupId": 5,
			"flags": "zh",
			"err_flag": "0",
			"dm1Name": "ECAS",
			"err_code": "SA: 0x2F, SPN: {spn}, FMI: {fmi}",
			"advice": "$adv1"
		},
		{
			"id": "ECAS|28",
			"spn": 274251,
			"ui_name": "CanState",
			"desc": "CAN сообщение ASC_2A. Ненормальная частота обновления: $value3_{value}",
			"groupId": 5,
			"flags": "zh",
			"err_flag": "0",
			"dm1Name": "ECAS",
			"err_code": "SA: 0x2F, SPN: {spn}, FMI: {fmi}",
			"advice": "$adv1"
		},
		{
			"id": "ECAS|29",
			"spn": 274252,
			"ui_name": "CanState",
			"desc": "CAN сообщение ASC_2B. Ненормальная частота обновления: $value3_{value}",
			"groupId": 5,
			"flags": "zh",
			"err_flag": "0",
			"dm1Name": "ECAS",
			"err_code": "SA: 0x2F, SPN: {spn}, FMI: {fmi}",
			"advice": "$adv1"
		},
		{
			"id": "ECAS|30",
			"spn": 274253,
			"ui_name": "CanState",
			"desc": "CAN сообщение ASC_6A. Ненормальная частота обновления: $value3_{value}",
			"groupId": 5,
			"flags": "zh",
			"err_flag": "0",
			"dm1Name": "ECAS",
			"err_code": "SA: 0x2F, SPN: {spn}, FMI: {fmi}",
			"advice": "$adv1"
		},
		{
			"id": "ECAS|31",
			"spn": 274254,
			"ui_name": "CanState",
			"desc": "CAN сообщение ASC_6B. Ненормальная частота обновления: $value3_{value}",
			"groupId": 5,
			"flags": "zh",
			"err_flag": "0",
			"dm1Name": "ECAS",
			"err_code": "SA: 0x2F, SPN: {spn}, FMI: {fmi}",
			"advice": "$adv1"
		},
		{
			"id": "ECAS|32",
			"spn": 274255,
			"ui_name": "CanState",
			"desc": "CAN сообщение Door Info. Ненормальная частота обновления: $value3_{value}",
			"groupId": 5,
			"flags": "zh",
			"err_flag": "0",
			"dm1Name": "ECAS",
			"err_code": "SA: 0x2F, SPN: {spn}, FMI: {fmi}",
			"advice": "$adv1"
		},
		{
			"id": "ECAS|33",
			"spn": 274256,
			"ui_name": "CanState",
			"desc": "CAN сообщение EBC1_A. Ненормальная частота обновления: $value3_{value}",
			"groupId": 5,
			"flags": "zh",
			"err_flag": "0",
			"dm1Name": "ECAS",
			"err_code": "SA: 0x2F, SPN: {spn}, FMI: {fmi}",
			"advice": "$adv1"
		},
		{
			"id": "ECAS|34_1",
			"spn": 274430,
			"fmi": 2,
			"ui_name": "ControlBlock",
			"desc": "Блок управления (внутренняя неисправность). Изменчивые, прерывистые или неправильные данные: $value3_{value}",
			"groupId": 6,
			"flags": "zh",
			"err_flag": "0",
			"dm1Name": "ECAS",
			"err_code": "SA: 0x2F, SPN: {spn}, FMI: {fmi}",
			"advice": "$adv1"
		},
		{
			"id": "ECAS|34_2",
			"spn": 274430,
			"fmi": 11,
			"ui_name": "ControlBlock",
			"desc": "Блок управления (внутренняя неисправность). Режим сбоя не идентифицируется: $value3_{value}",
			"groupId": 6,
			"flags": "zh",
			"err_flag": "0",
			"dm1Name": "ECAS",
			"err_code": "SA: 0x2F, SPN: {spn}, FMI: {fmi}",
			"advice": "$adv1"
		},
		{
			"id": "ECAS|34_3",
			"spn": 274430,
			"fmi": 12,
			"ui_name": "ControlBlock",
			"desc": "Блок управления (внутренняя неисправность). Плохое интеллектуальное устройство или компонент: $value3_{value}",
			"groupId": 6,
			"flags": "zh",
			"err_flag": "0",
			"dm1Name": "ECAS",
			"err_code": "SA: 0x2F, SPN: {spn}, FMI: {fmi}",
			"advice": "$adv1"
		},
		{
			"id": "ECAS|35",
			"spn": 274214,
			"ui_name": "CheckSumData",
			"desc": "Специфические данные контрольной суммы ECU. Изменчивые, прерывистые или неправильные данные: $value3_{value}",
			"groupId": 7,
			"flags": "zh",
			"err_flag": "0",
			"dm1Name": "ECAS",
			"err_code": "SA: 0x2F, SPN: {spn}, FMI: {fmi}",
			"advice": "$adv1"
		},
		{
			"id": "ECAS|36_1",
			"spn": 274215,
			"fmi": 2,
			"ui_name": "CheckSumData",
			"desc": "Данные контрольной суммы. Изменчивые, прерывистые или неправильные данные: $value3_{value}",
			"groupId": 7,
			"flags": "zh",
			"err_flag": "0",
			"dm1Name": "ECAS",
			"err_code": "SA: 0x2F, SPN: {spn}, FMI: {fmi}",
			"advice": "$adv1"
		},
		{
			"id": "ECAS|36_2",
			"spn": 274215,
			"fmi": 13,
			"ui_name": "CheckSumData",
			"desc": "Данные контрольной суммы. Вне калибровки: $value3_{value}",
			"groupId": 7,
			"flags": "zh",
			"err_flag": "0",
			"dm1Name": "ECAS",
			"err_code": "SA: 0x2F, SPN: {spn}, FMI: {fmi}",
			"advice": "$adv1"
		},
		{
			"id": "ECAS|37_1",
			"spn": 274216,
			"fmi": 2,
			"ui_name": "CheckSumData",
			"desc": "Контрольная сумма калибровочных данных датчика дистанции. Изменчивые, прерывистые или неправильные данные: $value3_{value}",
			"groupId": 7,
			"flags": "zh",
			"err_flag": "0",
			"dm1Name": "ECAS",
			"err_code": "SA: 0x2F, SPN: {spn}, FMI: {fmi}",
			"advice": "$adv1"
		},
		{
			"id": "ECAS|37_2",
			"spn": 274216,
			"fmi": 13,
			"ui_name": "CheckSumData",
			"desc": "Контрольная сумма калибровочных данных датчика дистанции. Вне калибровки: $value3_{value}",
			"groupId": 7,
			"flags": "zh",
			"err_flag": "0",
			"dm1Name": "ECAS",
			"err_code": "SA: 0x2F, SPN: {spn}, FMI: {fmi}",
			"advice": "$adv1"
		},
		{
			"id": "ECAS|38",
			"spn": 274217,
			"ui_name": "CheckSumData",
			"desc": "Контрольная сумма калибровочных данных датчика дистанции. Изменчивые, прерывистые или неправильные данные: $value3_{value}",
			"groupId": 7,
			"flags": "zh",
			"err_flag": "0",
			"dm1Name": "ECAS",
			"err_code": "SA: 0x2F, SPN: {spn}, FMI: {fmi}",
			"advice": "$adv1"
		},
		{
			"id": "ECAS|39_1",
			"spn": 274218,
			"fmi": 2,
			"ui_name": "CheckSumData",
			"desc": "Контрольная сумма данных макс. нагрузки на ось. Изменчивые, прерывистые или неправильные данные: $value3_{value}",
			"groupId": 7,
			"flags": "zh",
			"err_flag": "0",
			"dm1Name": "ECAS",
			"err_code": "SA: 0x2F, SPN: {spn}, FMI: {fmi}",
			"advice": "$adv1"
		},
		{
			"id": "ECAS|39_2",
			"spn": 274218,
			"fmi": 12,
			"ui_name": "CheckSumData",
			"desc": "Контрольная сумма данных макс. нагрузки на ось. Плохое интеллектуальное устройство или компонент: $value3_{value}",
			"groupId": 7,
			"flags": "zh",
			"err_flag": "0",
			"dm1Name": "ECAS",
			"err_code": "SA: 0x2F, SPN: {spn}, FMI: {fmi}",
			"advice": "$adv1"
		},
		{
			"id": "ECAS|40",
			"spn": 274268,
			"ui_name": "CheckSumData",
			"desc": "Контрольная сумма конфигурации данных CAN. Изменчивые, прерывистые или неправильные данные: $value3_{value}",
			"groupId": 7,
			"flags": "zh",
			"err_flag": "0",
			"dm1Name": "ECAS",
			"err_code": "SA: 0x2F, SPN: {spn}, FMI: {fmi}",
			"advice": "$adv1"
		},
		{
			"id": "ECAS|41",
			"spn": 274271,
			"ui_name": "CheckSumData",
			"desc": "Контрольная сумма данных калибровки датчиков ускорения. Изменчивые, прерывистые или неправильные данные: $value3_{value}",
			"groupId": 7,
			"flags": "zh",
			"err_flag": "0",
			"dm1Name": "ECAS",
			"err_code": "SA: 0x2F, SPN: {spn}, FMI: {fmi}",
			"advice": "$adv1"
		},
		{
			"id": "ECAS|42_1",
			"spn": 274273,
			"fmi": 3,
			"ui_name": "AccelerationSensors",
			"desc": "Датчик поперечного ускорения. Перенапряжение или короткое замыкание: $value3_{value}",
			"groupId": 8,
			"flags": "zh",
			"err_flag": "0",
			"dm1Name": "ECAS",
			"err_code": "SA: 0x2F, SPN: {spn}, FMI: {fmi}",
			"advice": "$adv1"
		},
		{
			"id": "ECAS|42_2",
			"spn": 274273,
			"fmi": 5,
			"ui_name": "AccelerationSensors",
			"desc": "Датчик поперечного ускорения. Ток ниже нормы или обрыв цепи: $value3_{value}",
			"groupId": 8,
			"flags": "zh",
			"err_flag": "0",
			"dm1Name": "ECAS",
			"err_code": "SA: 0x2F, SPN: {spn}, FMI: {fmi}",
			"advice": "$adv1"
		},
		{
			"id": "ECAS|42_3",
			"spn": 274273,
			"fmi": 6,
			"ui_name": "AccelerationSensors",
			"desc": "Датчик поперечного ускорения. Ток выше нормы или цепь заземлена: $value3_{value}",
			"groupId": 8,
			"flags": "zh",
			"err_flag": "0",
			"dm1Name": "ECAS",
			"err_code": "SA: 0x2F, SPN: {spn}, FMI: {fmi}",
			"advice": "$adv1"
		},
		{
			"id": "ECAS|43_1",
			"spn": 274274,
			"fmi": 2,
			"ui_name": "ComponentCheckProcessState",
			"desc": "Проверка параметров / Проверка компонентов. Изменчивые, прерывистые или неправильные данные: $value3_{value}",
			"groupId": 9,
			"flags": "zh",
			"err_flag": "0",
			"dm1Name": "ECAS",
			"err_code": "SA: 0x2F, SPN: {spn}, FMI: {fmi}",
			"advice": "$adv1"
		},
		{
			"id": "ECAS|43_2",
			"spn": 274274,
			"fmi": 11,
			"ui_name": "ComponentCheckProcessState",
			"desc": "Проверка параметров / Проверка компонентов. Режим сбоя не идентифицируется: $value3_{value}",
			"groupId": 9,
			"flags": "zh",
			"err_flag": "0",
			"dm1Name": "ECAS",
			"err_code": "SA: 0x2F, SPN: {spn}, FMI: {fmi}",
			"advice": "$adv1"
		},
		{
			"id": "TPDM|0",
			"spn": 639,
			"fmi": 31,
			"ui_name": "SystemDiagMessages",
			"desc": "J1939 Сеть №1, основная бортовая сеть. Установление состояния. Коммуникационная шина HS-CAN: $value3_{value}",
			"groupId": 21,
			"flags": "zh",
			"err_flag": "0",
			"dm1Name": "TPDM",
			"err_code": "SPN: {spn}, FMI: {fmi}"
		},
		{
			"id": "TPDM|1",
			"spn": 611,
			"fmi": 2,
			"ui_name": "SystemDiagMessages",
			"desc": "Диагностический код системы №1. Данные изменчивы, прерывисты или содержат ошибки. Сбой сигнала шины внешнего ресивера 1: $value3_{value}",
			"groupId": 21,
			"flags": "zh",
			"err_flag": "0",
			"dm1Name": "TPDM",
			"err_code": "SPN: {spn}, FMI: {fmi}"
		},
		{
			"id": "TPDM|2",
			"spn": 611,
			"fmi": 14,
			"ui_name": "SystemDiagMessages",
			"desc": "Диагностический код системы №1. Специальные инструкции. Размыкание или короткое замыкание в цепи внешних ресиверов: $value3_{value}",
			"groupId": 21,
			"flags": "zh",
			"err_flag": "0",
			"dm1Name": "TPDM",
			"err_code": "SPN: {spn}, FMI: {fmi}"
		},
		{
			"id": "TPDM|3",
			"spn": 168,
			"fmi": 4,
			"ui_name": "SystemDiagMessages",
			"desc": "Потенциал аккумулятора / Силовой вход 1. Низкое напряжение или короткое замыкание на «землю». Напряжение в цепи сетевого напряжения ниже порогового значения: $value3_{value}",
			"groupId": 21,
			"flags": "zh",
			"err_flag": "0",
			"dm1Name": "TPDM",
			"err_code": "SPN: {spn}, FMI: {fmi}"
		},
		{
			"id": "TPDM|4",
			"spn": 168,
			"fmi": 3,
			"ui_name": "SystemDiagMessages",
			"desc": "Потенциал аккумулятора / Силовой вход 1.  Высокое напряжение или короткое замыкание по «плюсу». Напряжение в цепи сетевого напряжения превышает пороговое значение: $value3_{value}",
			"groupId": 21,
			"flags": "zh",
			"err_flag": "0",
			"dm1Name": "TPDM",
			"err_code": "SPN: {spn}, FMI: {fmi}"
		},
		{
			"id": "TPDM|5",
			"spn": 612,
			"fmi": 14,
			"ui_name": "SystemDiagMessages",
			"desc": "Диагностический код системы №1. Специальные инструкции. Радиочастотные помехи: $value3_{value}",
			"groupId": 21,
			"flags": "zh",
			"err_flag": "0",
			"dm1Name": "TPDM",
			"err_code": "SPN: {spn}, FMI: {fmi}"
		},
		{
			"id": "TPDM|6",
			"spn": 613,
			"fmi": 12,
			"ui_name": "SystemDiagMessages",
			"desc": "Диагностический код системы №3. Неисправность интеллектуального устройства или компонента. Ошибка ROM / ROM / EEPROM: $value3_{value}",
			"groupId": 21,
			"flags": "zh",
			"err_flag": "0",
			"dm1Name": "TPDM",
			"err_code": "SPN: {spn}, FMI: {fmi}"
		},
		{
			"id": "TPDM|7",
			"spn": 613,
			"fmi": 31,
			"ui_name": "SystemDiagMessages",
			"desc": "Диагностический код системы №3. Установление состояния. Ошибка микроконтроллера (µC): $value3_{value}",
			"groupId": 21,
			"flags": "zh",
			"err_flag": "0",
			"dm1Name": "TPDM",
			"err_code": "SPN: {spn}, FMI: {fmi}"
		},
		{
			"id": "TPDM|8",
			"spn": 612,
			"fmi": 31,
			"ui_name": "SystemDiagMessages",
			"desc": "Диагностический код системы №2. Установление состояния. В шинах не установлены модули ТТМ: $value3_{value}",
			"groupId": 21,
			"flags": "zh",
			"err_flag": "0",
			"dm1Name": "TPDM",
			"err_code": "SPN: {spn}, FMI: {fmi}"
		},
		{
			"id": "TPDM|9",
			"spn": 612,
			"fmi": 13,
			"ui_name": "SystemDiagMessages",
			"desc": "Диагностический код системы №2. Требуется калибровка. Отсутствуют сохраненные параметры конфигурации: $value3_{value}",
			"groupId": 21,
			"flags": "zh",
			"err_flag": "0",
			"dm1Name": "TPDM",
			"err_code": "SPN: {spn}, FMI: {fmi}"
		},
		{
			"id": "TPDM|100",
			"dm1Name": "TPDM",
			"spn": 7193,
			"fmi": 31,
			"ui_name": "TiresDiag",
			"desc": "Шина {N} Статус активации датчика. Отсутствие сигнала $fmi_desc{fmi}: : $value3_{value}",
			"groupId": 22,
			"flags": "zth",
			"err_flag": "0",
			"err_code": "SPN: {spn}, FMI: {fmi}"
		},
		{
			"id": "TPDM|101",
			"dm1Name": "TPDM",
			"spn": 7193,
			"fmi": 10,
			"ui_name": "TiresDiag",
			"desc": "Шина {N} Статус активации датчика. Радиопомехи $fmi_desc{fmi}: $value3_{value}",
			"groupId": 22,
			"flags": "zth",
			"err_flag": "0",
			"err_code": "SPN: {spn}, FMI: {fmi}"
		},
		{
			"id": "TPDM|102",
			"dm1Name": "TPDM",
			"spn": 7113,
			"fmi": 18,
			"ui_name": "TiresDiag",
			"desc": "Шина {N} Низкое давление. $fmi_desc{fmi}: $value3_{value}",
			"groupId": 22,
			"flags": "zth",
			"err_flag": "0",
			"err_code": "SPN: {spn}, FMI: {fmi}"
		},
		{
			"id": "TPDM|103",
			"dm1Name": "TPDM",
			"spn": 7113,
			"fmi": 1,
			"ui_name": "TiresDiag",
			"desc": "Шина {N} Низкое давление. $fmi_desc{fmi}: $value3_{value}",
			"groupId": 22,
			"flags": "zth",
			"err_flag": "0",
			"err_code": "SPN: {spn}, FMI: {fmi}"
		},
		{
			"id": "TPDM|104",
			"dm1Name": "TPDM",
			"spn": 7233,
			"fmi": 31,
			"ui_name": "TiresDiag",
			"desc": "Шина {N} Утечка воздуха. $fmi_desc{fmi}: $value3_{value}",
			"groupId": 22,
			"flags": "zth",
			"err_flag": "0",
			"err_code": "SPN: {spn}, FMI: {fmi}"
		},
		{
			"id": "TPDM|105",
			"dm1Name": "TPDM",
			"spn": 7153,
			"fmi": 16,
			"ui_name": "TiresDiag",
			"desc": "Шина {N} Нарушение температурного режима. $fmi_desc{fmi}: $value3_{value}",
			"groupId": 22,
			"flags": "zth",
			"err_flag": "0",
			"err_code": "SPN: {spn}, FMI: {fmi}"
		},
		{
			"id": "TPDM|106",
			"dm1Name": "TPDM",
			"spn": 7273,
			"fmi": 11,
			"ui_name": "TiresDiag",
			"desc": "Шина {N} Неисправность датчика. $fmi_desc{fmi}: $value3_{value}",
			"groupId": 22,
			"flags": "zth",
			"err_flag": "0",
			"err_code": "SPN: {spn}, FMI: {fmi}"
		},
		{
			"id": "TPDM|107",
			"dm1Name": "TPDM",
			"spn": 7153,
			"fmi": 0,
			"ui_name": "TiresDiag",
			"desc": "Шина {N} Защитное отключение при перегреве модуля ТТМ. $fmi_desc{fmi}: $value3_{value}",
			"groupId": 22,
			"flags": "zth",
			"err_flag": "0",
			"err_code": "SPN: {spn}, FMI: {fmi}"
		},
		{
			"id": "TPDM|108",
			"dm1Name": "TPDM",
			"spn": 7193,
			"fmi": 14,
			"ui_name": "TiresDiag",
			"desc": "Шина {N} Статус активации датчика. Сбой при вращении модуля ТТМ. $fmi_desc{fmi}: $value3_{value}",
			"groupId": 22,
			"flags": "zth",
			"err_flag": "0",
			"err_code": "SPN: {spn}, FMI: {fmi}"
		},
		{
			"id": "TPDM|109",
			"dm1Name": "TPDM",
			"spn": 7193,
			"fmi": 7,
			"ui_name": "TiresDiag",
			"desc": "Шина {N} Статус активации датчика. Модуль ТТМ не закреплен. $fmi_desc{fmi}: $value3_{value}",
			"groupId": 22,
			"flags": "zth",
			"err_flag": "0",
			"err_code": "SPN: {spn}, FMI: {fmi}"
		},
		{
			"id": "DOOR1_1",
			"ui_name": "DoorsState",
			"desc": "Открывается 1 дверь: $value1_{value}",
			"groupId": 29,
			"flags": "h"
		},
		{
			"id": "DOOR1_2",
			"ui_name": "DoorsState",
			"desc": "Закрывается 1 дверь: $value1_{value}",
			"groupId": 29,
			"flags": "h"
		},
		{
			"id": "DOOR2_1",
			"ui_name": "DoorsState",
			"desc": "Открывается 2 дверь: $value1_{value}",
			"groupId": 29,
			"flags": "h"
		},
		{
			"id": "DOOR2_2",
			"ui_name": "DoorsState",
			"desc": "Закрывается 2 дверь: $value1_{value}",
			"groupId": 29,
			"flags": "h"
		},
		{
			"id": "DOOR3_1",
			"ui_name": "DoorsState",
			"desc": "Открывается 3 дверь: $value1_{value}",
			"groupId": 29,
			"flags": "h"
		},
		{
			"id": "DOOR3_2",
			"ui_name": "DoorsState",
			"desc": "Закрывается 3 дверь: $value1_{value}",
			"groupId": 29,
			"flags": "h"
		},
		{
			"id": "DOOR4_1",
			"ui_name": "DoorsState",
			"desc": "Открыта 1 створка 1 двери: $value1_{value}",
			"groupId": 29,
			"flags": "h"
		},
		{
			"id": "DOOR4_2",
			"ui_name": "DoorsState",
			"desc": "Открыта 2 створка 1 двери: $value1_{value}",
			"groupId": 29,
			"flags": "h"
		},
		{
			"id": "DOOR5_1",
			"ui_name": "DoorsState",
			"desc": "Открыта 1 створка 2 двери: $value1_{value}",
			"groupId": 29,
			"flags": "h"
		},
		{
			"id": "DOOR5_2",
			"ui_name": "DoorsState",
			"desc": "Открыта 2 створка 2 двери: $value1_{value}",
			"groupId": 29,
			"flags": "h"
		},
		{
			"id": "DOOR6_1",
			"ui_name": "DoorsState",
			"desc": "Открыта 1 створка 3 двери: $value1_{value}",
			"groupId": 29,
			"flags": "h"
		},
		{
			"id": "DOOR6_2",
			"ui_name": "DoorsState",
			"desc": "Открыта 2 створка 3 двери: $value1_{value}",
			"groupId": 29,
			"flags": "h"
		},
		{
			"id": "DOOR4_3",
			"ui_name": "DoorsState",
			"desc": "Закрыта 1 створка 1 двери: $value1_{value}",
			"groupId": 29,
			"flags": "h"
		},
		{
			"id": "DOOR4_4",
			"ui_name": "DoorsState",
			"desc": "Закрыта 2 створка 1 двери: $value1_{value}",
			"groupId": 29,
			"flags": "h"
		},
		{
			"id": "DOOR5_3",
			"ui_name": "DoorsState",
			"desc": "Закрыта 1 створка 2 двери: $value1_{value}",
			"groupId": 29,
			"flags": "h"
		},
		{
			"id": "DOOR5_4",
			"ui_name": "DoorsState",
			"desc": "Закрыта 2 створка 2 двери: $value1_{value}",
			"groupId": 29,
			"flags": "h"
		},
		{
			"id": "DOOR6_3",
			"ui_name": "DoorsState",
			"desc": "Закрыта 1 створка 3 двери: $value1_{value}",
			"groupId": 29,
			"flags": "h"
		},
		{
			"id": "DOOR6_4",
			"ui_name": "DoorsState",
			"desc": "Закрыта 2 створка 3 двери: $value1_{value}",
			"groupId": 29,
			"flags": "h"
		},
		{
			"id": "TTS1_1",
			"ui_name": "EmergencyShutdown",
			"desc": "Состояние кнопки тревоги (SOS/ГЛОНАСС): $value2_{value}",
			"groupId": 19,
			"flags": "h"
		},
		{
			"id": "TTS1_2",
			"ui_name": "Fake",
			"desc": "Состояние кнопки переключения автоинформатора: $value2_{value}",
			"groupId": 888,
			"flags": "h"
		},
		{
			"id": "TTS1_3",
			"ui_name": "Fake",
			"desc": "Состояние транспортного средства: $value5_{value}",
			"groupId": 888,
			"flags": "h"
		},
		{
			"id": "VEP",
			"ui_name": "ConsumingEnergy",
			"desc": "Напряжение системы электрооборудования транспортного средства (В): {value}",
			"groupId": 0,
			"flags": "h",
			"expr": "swap2(x)*0.05"
		},
		{
			"id": "HVAC_TEMP",
			"ui_name": "ClimateSystemRegime",
			"desc": "Температура наружного воздуха (оС): {value}",
			"groupId": 20,
			"flags": "hm",
			"expr": "x*0.4-40"
		},
		{
			"id": "TTS1_4",
			"ui_name": "ClimateSystemRegime",
			"desc": "Температура воздуха в салоне (оС): {value}",
			"groupId": 20,
			"flags": "hm",
			"expr": "x*0.4-40"
		},
		{
			"id": "TTS3_1",
			"ui_name": "Temperature",
			"desc": "Температура охлаждающей жидкости (оС): {value}",
			"groupId": 15,
			"flags": "h",
			"expr": "x-40"
		},
		{
			"id": "TTS3_3",
			"ui_name": "Temperature",
			"desc": "Температура охлаждающей жидкости (оС): {value}",
			"groupId": 15,
			"flags": "h",
			"expr": "x-40"
		},
		{
			"id": "TTS3_2",
			"ui_name": "Temperature",
			"desc": "Температура масла в двигателе (оС): {value}",
			"groupId": 15,
			"flags": "h",
			"expr": "swap2(x)*0.4-40"
		},
		{
			"id": "TTS4_1",
			"ui_name": "ClimateSystemRegime",
			"desc": "Температура салона, датчик 1 модуля (оС): {value}",
			"groupId": 20,
			"flags": "hm",
			"expr": "x*0.4-40"
		},
		{
			"id": "TTS4_2",
			"ui_name": "ClimateSystemRegime",
			"desc": "Температура салона, датчик 2 модуля (оС): {value}",
			"groupId": 20,
			"flags": "hm",
			"expr": "x*0.4-40"
		},
		{
			"id": "TTS4_3",
			"ui_name": "ClimateSystemRegime",
			"desc": "Температура салона, датчик 3 модуля (оС): {value}",
			"groupId": 20,
			"flags": "hm",
			"expr": "x*0.4-40"
		},
		{
			"id": "TTS4_4",
			"ui_name": "ClimateSystemRegime",
			"desc": "Температура салона, датчик 4 модуля (оС): {value}",
			"groupId": 20,
			"flags": "hm",
			"expr": "x*0.4-40"
		},
		{
			"id": "TTS4_5",
			"ui_name": "Temperature",
			"desc": "Температура в мотоотсеке (оС): {value}",
			"groupId": 15,
			"flags": "h",
			"expr": "x*0.4-40"
		},
		{
			"id": "TTS4_6",
			"ui_name": "ClimateSystemRegime",
			"desc": "Средняя температура в салоне (оС): {value}",
			"groupId": 20,
			"flags": "hm",
			"expr": "x*0.4-40"
		},
		{
			"id": "TCO1_2",
			"ui_name": "Fake",
			"desc": "Скорость движения от тахографа (км/ч): {value}",
			"groupId": 888,
			"flags": "h",
			"expr" : "swap2(x)"
		},
		{
			"id": "TTS5",
			"ui_name": "Fake",
			"desc": "Запрос выдачи оповещений о приближении к остановочному пункту. Параметр – необходимое расстояние, после которого начинается оповещение (м): {value}",
			"groupId": 888,
			"flags": "h"
		},
		{
			"id": "TTM1_1",
			"ui_name": "ConsumingEnergy",
			"desc": "Уровень топлива (состояние заряда) (основной датчик): {value}",
			"groupId": 0,
			"flags": "h",
			"expr" : "x*0.4"
		},
		{
			"id": "TTM1_3",
			"ui_name": "ConsumingEnergy",
			"desc": "Состояние заряда (%): {value}",
			"groupId": 0,
			"flags": "h"
		},
		{
			"id": "TTM1_2",
			"ui_name": "ConsumingEnergy",
			"desc": "Уровень топлива (состояние заряда) (дополнительный датчик): {value}",
			"groupId": 0,
			"flags": "h",
			"expr" : "x*0.4"
		},
		{
			"id": "DD",
			"ui_name": "ConsumingEnergy",
			"desc": "Уровень топлива в бачке ПЖД: {value}",
			"groupId": 0,
			"flags": "h",
			"expr" : "x*0.4"
		},
		{
			"id": "TTM1_5",
			"ui_name": "Fake",
			"desc": "Тип автобуса: {value}",
			"groupId": 888,
			"flags": "h"
		},
		{
			"id": "AUXIO_1",
			"ui_name": "DoorsState",
			"desc": "Запрос от пассажира на остановку первой двери: $value1_{value}",
			"groupId": 29,
			"flags": "h"
		},
		{
			"id": "AUXIO_2",
			"ui_name": "DoorsState",
			"desc": "Запрос от пассажира на остановку второй двери: $value1_{value}",
			"groupId": 29,
			"flags": "h"
		},
		{
			"id": "AUXIO_3",
			"ui_name": "DoorsState",
			"desc": "Запрос от пассажира на остановку третьей двери: $value1_{value}",
			"groupId": 29,
			"flags": "h"
		},
		{
			"id": "AUXIO_4",
			"ui_name": "DoorsState",
			"desc": "Запрос от пассажира с ограниченными возможностями на остановку внутри салона: $value1_{value}",
			"groupId": 29,
			"flags": "h"
		},
		{
			"id": "TurnSignal",
			"ui_name": "Fake",
			"desc": "Сообщение о сигнале поворота: $value6_{spn}",
			"groupId": 888,
			"flags": "h"
		},
		{
			"id": "TransmState",
			"ui_name": "Fake",
			"desc": "Состояние текущей передачи транспортного средства: $value7_{value}",
			"groupId": 888,
			"flags": "h"
		},

		{
			"id": "BoardTemperatureExternal",
			"ui_name": "ClimateSystemRegime",
			"desc": "Внешняя температура (оС): {value}",
			"groupId": 20,
			"flags": "d"
		},
		{
			"id": "BoardTemperatureInternal",
			"ui_name": "ClimateSystemRegime",
			"desc": "Внутренняя температура (оС): {value}",
			"groupId": 20,
			"flags": "d"
		}
	]
}
